(kicad_symbol_lib (version 20220914) (generator kicad_symbol_editor)
  (symbol "Arduino_Mega2560_Shield" (pin_names (offset 1.016)) (in_bom yes) (on_board yes)
    (property "Reference" "XA1" (at 0 64.008 0)
      (effects (font (size 1.524 1.524)) hide)
    )
    (property "Value" "Arduino_Mega2560_Shield" (at -0.254 0.254 90)
      (effects (font (size 1.524 1.524)) (justify right))
    )
    (property "Footprint" "Arduino_Library:Arduino_Mega2560_Shield" (at -17.78 -69.85 0)
      (effects (font (size 1.524 1.524)) hide)
    )
    (property "Datasheet" "https://store.arduino.cc/products/arduino-mega-2560-rev3" (at -17.78 -69.85 0)
      (effects (font (size 1.524 1.524)) hide)
    )
    (property "ki_keywords" "Arduino MPU Shield" (at 0 0 0)
      (effects (font (size 1.27 1.27)) hide)
    )
    (property "ki_description" "Shield for Arduino Mega 2560" (at 0 0 0)
      (effects (font (size 1.27 1.27)) hide)
    )
    (property "ki_fp_filters" "Arduino_Mega2560_Shield" (at 0 0 0)
      (effects (font (size 1.27 1.27)) hide)
    )
    (symbol "Arduino_Mega2560_Shield_0_0"
      (rectangle (start -25.4 -58.42) (end 25.4 58.42)
        (stroke (width 0) (type default))
        (fill (type background))
      )
      (rectangle (start -20.32 -54.61) (end -12.7 -54.61)
        (stroke (width 0) (type default))
        (fill (type none))
      )
      (rectangle (start -19.05 -31.75) (end -12.7 -31.75)
        (stroke (width 0) (type default))
        (fill (type none))
      )
      (rectangle (start -19.05 -19.05) (end -12.7 -19.05)
        (stroke (width 0) (type default))
        (fill (type none))
      )
      (rectangle (start -19.05 26.67) (end -12.7 26.67)
        (stroke (width 0) (type default))
        (fill (type none))
      )
      (rectangle (start -17.78 -26.67) (end -16.51 -26.67)
        (stroke (width 0) (type default))
        (fill (type none))
      )
      (rectangle (start -17.78 -24.13) (end -16.51 -24.13)
        (stroke (width 0) (type default))
        (fill (type none))
      )
      (rectangle (start -16.51 -25.4) (end -13.97 -25.4)
        (stroke (width 0) (type default))
        (fill (type none))
      )
      (rectangle (start -16.51 -24.13) (end -16.51 -26.67)
        (stroke (width 0) (type default))
        (fill (type none))
      )
      (rectangle (start -16.51 54.61) (end -12.7 54.61)
        (stroke (width 0) (type default))
        (fill (type none))
      )
      (rectangle (start -15.24 34.29) (end -12.7 34.29)
        (stroke (width 0) (type default))
        (fill (type none))
      )
      (rectangle (start -15.24 36.83) (end -12.7 36.83)
        (stroke (width 0) (type default))
        (fill (type none))
      )
      (rectangle (start -12.7 -54.61) (end -12.7 -48.26)
        (stroke (width 0) (type default))
        (fill (type none))
      )
      (rectangle (start -12.7 -31.75) (end -12.7 -38.1)
        (stroke (width 0) (type default))
        (fill (type none))
      )
      (rectangle (start -12.7 26.67) (end -12.7 27.94)
        (stroke (width 0) (type default))
        (fill (type none))
      )
      (rectangle (start -12.7 34.29) (end -12.7 33.02)
        (stroke (width 0) (type default))
        (fill (type none))
      )
      (rectangle (start -12.7 41.91) (end -12.7 36.83)
        (stroke (width 0) (type default))
        (fill (type none))
      )
      (rectangle (start -12.7 49.53) (end -12.7 54.61)
        (stroke (width 0) (type default))
        (fill (type none))
      )
      (rectangle (start -6.35 48.26) (end -6.35 45.72)
        (stroke (width 0) (type default))
        (fill (type none))
      )
      (rectangle (start -2.54 45.72) (end -6.35 45.72)
        (stroke (width 0) (type default))
        (fill (type none))
      )
      (polyline
        (pts
          (xy -21.59 21.59)
          (xy -12.7 21.59)
        )
        (stroke (width 0) (type default))
        (fill (type none))
      )
      (polyline
        (pts
          (xy -12.7 -19.05)
          (xy -12.7 -7.62)
        )
        (stroke (width 0) (type default))
        (fill (type none))
      )
      (polyline
        (pts
          (xy -12.7 10.16)
          (xy -12.7 21.59)
        )
        (stroke (width 0) (type default))
        (fill (type none))
      )
      (polyline
        (pts
          (xy 12.7 -54.61)
          (xy 16.51 -54.61)
        )
        (stroke (width 0) (type default))
        (fill (type none))
      )
      (polyline
        (pts
          (xy 12.7 54.61)
          (xy 16.51 54.61)
        )
        (stroke (width 0) (type default))
        (fill (type none))
      )
      (polyline
        (pts
          (xy 17.78 -34.29)
          (xy 16.51 -34.29)
        )
        (stroke (width 0) (type default))
        (fill (type none))
      )
      (polyline
        (pts
          (xy 15.24 36.83)
          (xy 15.24 27.94)
          (xy 20.32 26.67)
        )
        (stroke (width 0) (type default))
        (fill (type none))
      )
      (polyline
        (pts
          (xy 15.24 44.45)
          (xy 15.24 53.34)
          (xy 16.51 54.61)
        )
        (stroke (width 0) (type default))
        (fill (type none))
      )
      (polyline
        (pts
          (xy 20.32 -31.75)
          (xy 17.78 -33.02)
          (xy 17.78 -35.56)
          (xy 20.32 -36.83)
        )
        (stroke (width 0) (type default))
        (fill (type none))
      )
      (rectangle (start 6.35 45.72) (end 2.54 45.72)
        (stroke (width 0) (type default))
        (fill (type none))
      )
      (rectangle (start 6.35 46.99) (end 6.35 45.72)
        (stroke (width 0) (type default))
        (fill (type none))
      )
      (text "Analogue I/O" (at -12.7 1.27 900)
        (effects (font (size 1.524 1.524)))
      )
      (text "I²C" (at -12.7 30.48 900)
        (effects (font (size 1.524 1.524)))
      )
      (text "Misc." (at -12.7 -25.4 900)
        (effects (font (size 1.524 1.524)))
      )
      (text "Power" (at -12.7 -43.18 900)
        (effects (font (size 1.524 1.524)))
      )
      (text "PWM" (at 15.24 -34.29 900)
        (effects (font (size 1.524 1.524)))
      )
      (text "PWM" (at 15.24 40.64 900)
        (effects (font (size 1.524 1.524)))
      )
      (text "Serial" (at -12.7 45.72 900)
        (effects (font (size 1.524 1.524)))
      )
      (text "SPI" (at 0 45.72 0)
        (effects (font (size 1.524 1.524)))
      )
    )
    (symbol "Arduino_Mega2560_Shield_1_0"
      (rectangle (start 12.7 -54.61) (end 12.7 -3.81)
        (stroke (width 0) (type default))
        (fill (type none))
      )
      (rectangle (start 12.7 54.61) (end 12.7 3.81)
        (stroke (width 0) (type default))
        (fill (type none))
      )
      (text "GPIO" (at 12.7 0 900)
        (effects (font (size 1.524 1.524)))
      )
    )
    (symbol "Arduino_Mega2560_Shield_1_1"
      (pin input line (at -2.286 -66.167 90) (length 7.62)
        (name "+" (effects (font (size 1.27 1.27))))
        (number "" (effects (font (size 1.27 1.27))))
      )
      (pin input line (at 2.286 -66.167 90) (length 7.62)
        (name "-" (effects (font (size 1.27 1.27))))
        (number "" (effects (font (size 1.27 1.27))))
      )
      (pin power_out line (at -33.02 -44.45 0) (length 7.62)
        (name "3.3V" (effects (font (size 1.27 1.27))))
        (number "3V3" (effects (font (size 1.27 1.27))))
      )
      (pin power_in line (at -33.02 -46.99 0) (length 7.62)
        (name "5V" (effects (font (size 1.27 1.27))))
        (number "5V1" (effects (font (size 1.27 1.27))))
      )
      (pin power_in line (at 1.27 66.04 270) (length 7.62)
        (name "SPI_5V" (effects (font (size 1.27 1.27))))
        (number "5V2" (effects (font (size 1.27 1.27))))
      )
      (pin power_in line (at -33.02 -49.53 0) (length 7.62)
        (name "5V" (effects (font (size 1.27 1.27))))
        (number "5V3" (effects (font (size 1.27 1.27))))
      )
      (pin power_in line (at -33.02 -52.07 0) (length 7.62)
        (name "5V" (effects (font (size 1.27 1.27))))
        (number "5V4" (effects (font (size 1.27 1.27))))
      )
      (pin bidirectional line (at -33.02 21.59 0) (length 7.62)
        (name "A0" (effects (font (size 1.27 1.27))))
        (number "A0" (effects (font (size 1.27 1.27))))
      )
      (pin bidirectional line (at -33.02 19.05 0) (length 7.62)
        (name "A1" (effects (font (size 1.27 1.27))))
        (number "A1" (effects (font (size 1.27 1.27))))
      )
      (pin bidirectional line (at -33.02 -3.81 0) (length 7.62)
        (name "A10" (effects (font (size 1.27 1.27))))
        (number "A10" (effects (font (size 1.27 1.27))))
      )
      (pin bidirectional line (at -33.02 -6.35 0) (length 7.62)
        (name "A11" (effects (font (size 1.27 1.27))))
        (number "A11" (effects (font (size 1.27 1.27))))
      )
      (pin bidirectional line (at -33.02 -8.89 0) (length 7.62)
        (name "A12" (effects (font (size 1.27 1.27))))
        (number "A12" (effects (font (size 1.27 1.27))))
      )
      (pin bidirectional line (at -33.02 -11.43 0) (length 7.62)
        (name "A13" (effects (font (size 1.27 1.27))))
        (number "A13" (effects (font (size 1.27 1.27))))
      )
      (pin bidirectional line (at -33.02 -13.97 0) (length 7.62)
        (name "A14" (effects (font (size 1.27 1.27))))
        (number "A14" (effects (font (size 1.27 1.27))))
      )
      (pin bidirectional line (at -33.02 -16.51 0) (length 7.62)
        (name "A15" (effects (font (size 1.27 1.27))))
        (number "A15" (effects (font (size 1.27 1.27))))
      )
      (pin bidirectional line (at -33.02 16.51 0) (length 7.62)
        (name "A2" (effects (font (size 1.27 1.27))))
        (number "A2" (effects (font (size 1.27 1.27))))
      )
      (pin bidirectional line (at -33.02 13.97 0) (length 7.62)
        (name "A3" (effects (font (size 1.27 1.27))))
        (number "A3" (effects (font (size 1.27 1.27))))
      )
      (pin bidirectional line (at -33.02 11.43 0) (length 7.62)
        (name "A4" (effects (font (size 1.27 1.27))))
        (number "A4" (effects (font (size 1.27 1.27))))
      )
      (pin bidirectional line (at -33.02 8.89 0) (length 7.62)
        (name "A5" (effects (font (size 1.27 1.27))))
        (number "A5" (effects (font (size 1.27 1.27))))
      )
      (pin bidirectional line (at -33.02 6.35 0) (length 7.62)
        (name "A6" (effects (font (size 1.27 1.27))))
        (number "A6" (effects (font (size 1.27 1.27))))
      )
      (pin bidirectional line (at -33.02 3.81 0) (length 7.62)
        (name "A7" (effects (font (size 1.27 1.27))))
        (number "A7" (effects (font (size 1.27 1.27))))
      )
      (pin bidirectional line (at -33.02 1.27 0) (length 7.62)
        (name "A8" (effects (font (size 1.27 1.27))))
        (number "A8" (effects (font (size 1.27 1.27))))
      )
      (pin bidirectional line (at -33.02 -1.27 0) (length 7.62)
        (name "A9" (effects (font (size 1.27 1.27))))
        (number "A9" (effects (font (size 1.27 1.27))))
      )
      (pin input line (at -33.02 -19.05 0) (length 7.62)
        (name "AREF" (effects (font (size 1.27 1.27))))
        (number "AREF" (effects (font (size 1.27 1.27))))
      )
      (pin bidirectional line (at -33.02 54.61 0) (length 7.62)
        (name "D0_RX0" (effects (font (size 1.27 1.27))))
        (number "D0" (effects (font (size 1.27 1.27))))
      )
      (pin bidirectional line (at -33.02 52.07 0) (length 7.62)
        (name "D1_TX0" (effects (font (size 1.27 1.27))))
        (number "D1" (effects (font (size 1.27 1.27))))
      )
      (pin bidirectional line (at 33.02 34.29 180) (length 7.62)
        (name "D10" (effects (font (size 1.27 1.27))))
        (number "D10" (effects (font (size 1.27 1.27))))
      )
      (pin bidirectional line (at 33.02 31.75 180) (length 7.62)
        (name "D11" (effects (font (size 1.27 1.27))))
        (number "D11" (effects (font (size 1.27 1.27))))
      )
      (pin bidirectional line (at 33.02 29.21 180) (length 7.62)
        (name "D12" (effects (font (size 1.27 1.27))))
        (number "D12" (effects (font (size 1.27 1.27))))
      )
      (pin bidirectional line (at 33.02 26.67 180) (length 7.62)
        (name "D13" (effects (font (size 1.27 1.27))))
        (number "D13" (effects (font (size 1.27 1.27))))
      )
      (pin bidirectional line (at -33.02 36.83 0) (length 7.62)
        (name "D14_TX3" (effects (font (size 1.27 1.27))))
        (number "D14" (effects (font (size 1.27 1.27))))
      )
      (pin bidirectional line (at -33.02 39.37 0) (length 7.62)
        (name "D15_RX3" (effects (font (size 1.27 1.27))))
        (number "D15" (effects (font (size 1.27 1.27))))
      )
      (pin bidirectional line (at -33.02 41.91 0) (length 7.62)
        (name "D16_TX2" (effects (font (size 1.27 1.27))))
        (number "D16" (effects (font (size 1.27 1.27))))
      )
      (pin bidirectional line (at -33.02 44.45 0) (length 7.62)
        (name "D17_RX2" (effects (font (size 1.27 1.27))))
        (number "D17" (effects (font (size 1.27 1.27))))
      )
      (pin bidirectional line (at -33.02 46.99 0) (length 7.62)
        (name "D18_TX1" (effects (font (size 1.27 1.27))))
        (number "D18" (effects (font (size 1.27 1.27))))
      )
      (pin bidirectional line (at -33.02 49.53 0) (length 7.62)
        (name "D19_RX1" (effects (font (size 1.27 1.27))))
        (number "D19" (effects (font (size 1.27 1.27))))
      )
      (pin bidirectional line (at 33.02 54.61 180) (length 7.62)
        (name "D2_INT0" (effects (font (size 1.27 1.27))))
        (number "D2" (effects (font (size 1.27 1.27))))
      )
      (pin bidirectional line (at -33.02 34.29 0) (length 7.62)
        (name "D20_SDA" (effects (font (size 1.27 1.27))))
        (number "D20" (effects (font (size 1.27 1.27))))
      )
      (pin bidirectional clock (at -33.02 31.75 0) (length 7.62)
        (name "D21_SCL" (effects (font (size 1.27 1.27))))
        (number "D21" (effects (font (size 1.27 1.27))))
      )
      (pin bidirectional line (at 33.02 24.13 180) (length 7.62)
        (name "D22" (effects (font (size 1.27 1.27))))
        (number "D22" (effects (font (size 1.27 1.27))))
      )
      (pin bidirectional line (at 33.02 21.59 180) (length 7.62)
        (name "D23" (effects (font (size 1.27 1.27))))
        (number "D23" (effects (font (size 1.27 1.27))))
      )
      (pin bidirectional line (at 33.02 19.05 180) (length 7.62)
        (name "D24" (effects (font (size 1.27 1.27))))
        (number "D24" (effects (font (size 1.27 1.27))))
      )
      (pin bidirectional line (at 33.02 16.51 180) (length 7.62)
        (name "D25" (effects (font (size 1.27 1.27))))
        (number "D25" (effects (font (size 1.27 1.27))))
      )
      (pin bidirectional line (at 33.02 13.97 180) (length 7.62)
        (name "D26" (effects (font (size 1.27 1.27))))
        (number "D26" (effects (font (size 1.27 1.27))))
      )
      (pin bidirectional line (at 33.02 11.43 180) (length 7.62)
        (name "D27" (effects (font (size 1.27 1.27))))
        (number "D27" (effects (font (size 1.27 1.27))))
      )
      (pin bidirectional line (at 33.02 8.89 180) (length 7.62)
        (name "D28" (effects (font (size 1.27 1.27))))
        (number "D28" (effects (font (size 1.27 1.27))))
      )
      (pin bidirectional line (at 33.02 6.35 180) (length 7.62)
        (name "D29" (effects (font (size 1.27 1.27))))
        (number "D29" (effects (font (size 1.27 1.27))))
      )
      (pin bidirectional line (at 33.02 52.07 180) (length 7.62)
        (name "D3_INT1" (effects (font (size 1.27 1.27))))
        (number "D3" (effects (font (size 1.27 1.27))))
      )
      (pin bidirectional line (at 33.02 3.81 180) (length 7.62)
        (name "D30" (effects (font (size 1.27 1.27))))
        (number "D30" (effects (font (size 1.27 1.27))))
      )
      (pin bidirectional line (at 33.02 1.27 180) (length 7.62)
        (name "D31" (effects (font (size 1.27 1.27))))
        (number "D31" (effects (font (size 1.27 1.27))))
      )
      (pin bidirectional line (at 33.02 -1.27 180) (length 7.62)
        (name "D32" (effects (font (size 1.27 1.27))))
        (number "D32" (effects (font (size 1.27 1.27))))
      )
      (pin bidirectional line (at 33.02 -3.81 180) (length 7.62)
        (name "D33" (effects (font (size 1.27 1.27))))
        (number "D33" (effects (font (size 1.27 1.27))))
      )
      (pin bidirectional line (at 33.02 -6.35 180) (length 7.62)
        (name "D34" (effects (font (size 1.27 1.27))))
        (number "D34" (effects (font (size 1.27 1.27))))
      )
      (pin bidirectional line (at 33.02 -8.89 180) (length 7.62)
        (name "D35" (effects (font (size 1.27 1.27))))
        (number "D35" (effects (font (size 1.27 1.27))))
      )
      (pin bidirectional line (at 33.02 -11.43 180) (length 7.62)
        (name "D36" (effects (font (size 1.27 1.27))))
        (number "D36" (effects (font (size 1.27 1.27))))
      )
      (pin bidirectional line (at 33.02 -13.97 180) (length 7.62)
        (name "D37" (effects (font (size 1.27 1.27))))
        (number "D37" (effects (font (size 1.27 1.27))))
      )
      (pin bidirectional line (at 33.02 -16.51 180) (length 7.62)
        (name "D38" (effects (font (size 1.27 1.27))))
        (number "D38" (effects (font (size 1.27 1.27))))
      )
      (pin bidirectional line (at 33.02 -19.05 180) (length 7.62)
        (name "D39" (effects (font (size 1.27 1.27))))
        (number "D39" (effects (font (size 1.27 1.27))))
      )
      (pin bidirectional line (at 33.02 49.53 180) (length 7.62)
        (name "D4" (effects (font (size 1.27 1.27))))
        (number "D4" (effects (font (size 1.27 1.27))))
      )
      (pin bidirectional line (at 33.02 -21.59 180) (length 7.62)
        (name "D40" (effects (font (size 1.27 1.27))))
        (number "D40" (effects (font (size 1.27 1.27))))
      )
      (pin bidirectional line (at 33.02 -24.13 180) (length 7.62)
        (name "D41" (effects (font (size 1.27 1.27))))
        (number "D41" (effects (font (size 1.27 1.27))))
      )
      (pin bidirectional line (at 33.02 -26.67 180) (length 7.62)
        (name "D42" (effects (font (size 1.27 1.27))))
        (number "D42" (effects (font (size 1.27 1.27))))
      )
      (pin bidirectional line (at 33.02 -29.21 180) (length 7.62)
        (name "D43" (effects (font (size 1.27 1.27))))
        (number "D43" (effects (font (size 1.27 1.27))))
      )
      (pin bidirectional line (at 33.02 -31.75 180) (length 7.62)
        (name "D44" (effects (font (size 1.27 1.27))))
        (number "D44" (effects (font (size 1.27 1.27))))
      )
      (pin bidirectional line (at 33.02 -34.29 180) (length 7.62)
        (name "D45" (effects (font (size 1.27 1.27))))
        (number "D45" (effects (font (size 1.27 1.27))))
      )
      (pin bidirectional line (at 33.02 -36.83 180) (length 7.62)
        (name "D46" (effects (font (size 1.27 1.27))))
        (number "D46" (effects (font (size 1.27 1.27))))
      )
      (pin bidirectional line (at 33.02 -39.37 180) (length 7.62)
        (name "D47" (effects (font (size 1.27 1.27))))
        (number "D47" (effects (font (size 1.27 1.27))))
      )
      (pin bidirectional line (at 33.02 -41.91 180) (length 7.62)
        (name "D48" (effects (font (size 1.27 1.27))))
        (number "D48" (effects (font (size 1.27 1.27))))
      )
      (pin bidirectional line (at 33.02 -44.45 180) (length 7.62)
        (name "D49" (effects (font (size 1.27 1.27))))
        (number "D49" (effects (font (size 1.27 1.27))))
      )
      (pin bidirectional line (at 33.02 46.99 180) (length 7.62)
        (name "D5" (effects (font (size 1.27 1.27))))
        (number "D5" (effects (font (size 1.27 1.27))))
      )
      (pin bidirectional line (at 33.02 -46.99 180) (length 7.62)
        (name "D50" (effects (font (size 1.27 1.27))))
        (number "D50" (effects (font (size 1.27 1.27))))
      )
      (pin bidirectional line (at 33.02 -49.53 180) (length 7.62)
        (name "D51" (effects (font (size 1.27 1.27))))
        (number "D51" (effects (font (size 1.27 1.27))))
      )
      (pin bidirectional line (at 33.02 -52.07 180) (length 7.62)
        (name "D52" (effects (font (size 1.27 1.27))))
        (number "D52" (effects (font (size 1.27 1.27))))
      )
      (pin bidirectional line (at 33.02 -54.61 180) (length 7.62)
        (name "D53_SS" (effects (font (size 1.27 1.27))))
        (number "D53" (effects (font (size 1.27 1.27))))
      )
      (pin bidirectional line (at 33.02 44.45 180) (length 7.62)
        (name "D6" (effects (font (size 1.27 1.27))))
        (number "D6" (effects (font (size 1.27 1.27))))
      )
      (pin bidirectional line (at 33.02 41.91 180) (length 7.62)
        (name "D7" (effects (font (size 1.27 1.27))))
        (number "D7" (effects (font (size 1.27 1.27))))
      )
      (pin bidirectional line (at 33.02 39.37 180) (length 7.62)
        (name "D8" (effects (font (size 1.27 1.27))))
        (number "D8" (effects (font (size 1.27 1.27))))
      )
      (pin bidirectional line (at 33.02 36.83 180) (length 7.62)
        (name "D9" (effects (font (size 1.27 1.27))))
        (number "D9" (effects (font (size 1.27 1.27))))
      )
      (pin power_in line (at -33.02 -31.75 0) (length 7.62)
        (name "GND" (effects (font (size 1.27 1.27))))
        (number "GND1" (effects (font (size 1.27 1.27))))
      )
      (pin power_in line (at -33.02 -34.29 0) (length 7.62)
        (name "GND" (effects (font (size 1.27 1.27))))
        (number "GND2" (effects (font (size 1.27 1.27))))
      )
      (pin power_in line (at -33.02 -36.83 0) (length 7.62)
        (name "GND" (effects (font (size 1.27 1.27))))
        (number "GND3" (effects (font (size 1.27 1.27))))
      )
      (pin power_in line (at 3.81 66.04 270) (length 7.62)
        (name "SPI_GND" (effects (font (size 1.27 1.27))))
        (number "GND4" (effects (font (size 1.27 1.27))))
      )
      (pin power_in line (at -33.02 -39.37 0) (length 7.62)
        (name "GND" (effects (font (size 1.27 1.27))))
        (number "GND5" (effects (font (size 1.27 1.27))))
      )
      (pin power_in line (at -33.02 -41.91 0) (length 7.62)
        (name "GND" (effects (font (size 1.27 1.27))))
        (number "GND6" (effects (font (size 1.27 1.27))))
      )
      (pin output line (at -33.02 -26.67 0) (length 7.62)
        (name "IOREF" (effects (font (size 1.27 1.27))))
        (number "IORF" (effects (font (size 1.27 1.27))))
      )
      (pin input line (at -6.35 66.04 270) (length 7.62)
        (name "SPI_MISO" (effects (font (size 1.27 1.27))))
        (number "MISO" (effects (font (size 1.27 1.27))))
      )
      (pin output line (at -3.81 66.04 270) (length 7.62)
        (name "SPI_MOSI" (effects (font (size 1.27 1.27))))
        (number "MOSI" (effects (font (size 1.27 1.27))))
      )
      (pin open_collector input_low (at -33.02 -24.13 0) (length 7.62)
        (name "RESET" (effects (font (size 1.27 1.27))))
        (number "RST1" (effects (font (size 1.27 1.27))))
      )
      (pin open_collector input_low (at 6.35 66.04 270) (length 7.62)
        (name "SPI_RESET" (effects (font (size 1.27 1.27))))
        (number "RST2" (effects (font (size 1.27 1.27))))
      )
      (pin output clock (at -1.27 66.04 270) (length 7.62)
        (name "SPI_SCK" (effects (font (size 1.27 1.27))))
        (number "SCK" (effects (font (size 1.27 1.27))))
      )
      (pin bidirectional clock (at -33.02 26.67 0) (length 7.62)
        (name "SCL" (effects (font (size 1.27 1.27))))
        (number "SCL" (effects (font (size 1.27 1.27))))
      )
      (pin bidirectional line (at -33.02 29.21 0) (length 7.62)
        (name "SDA" (effects (font (size 1.27 1.27))))
        (number "SDA" (effects (font (size 1.27 1.27))))
      )
      (pin power_in line (at -33.02 -54.61 0) (length 7.62)
        (name "VIN" (effects (font (size 1.27 1.27))))
        (number "VIN" (effects (font (size 1.27 1.27))))
      )
    )
  )
)
