(kicad_symbol_lib (version 20220914) (generator kicad_symbol_editor)
  (symbol "LCD_Display_Screen" (in_bom yes) (on_board yes)
    (property "Reference" "M240240MCU1" (at -6.858 -10.414 0)
      (effects (font (size 1.27 1.27)) (justify left))
    )
    (property "Value" "LCD_Display_Screen" (at -8.636 -13.335 0)
      (effects (font (size 1.27 1.27)) (justify left))
    )
    (property "Footprint" "" (at 0.635 -1.27 0)
      (effects (font (size 1.27 1.27)) hide)
    )
    (property "Datasheet" "" (at 0.635 -1.27 0)
      (effects (font (size 1.27 1.27)) hide)
    )
    (symbol "LCD_Display_Screen_0_0"
      (text "240x240 LCD" (at 2.159 -1.143 0)
        (effects (font (size 1.27 1.27) italic))
      )
      (text "SPI Interface" (at -4.318 -4.318 0)
        (effects (font (size 1.27 1.27) italic) (justify left))
      )
      (text "ST7789V" (at -4.572 1.524 0)
        (effects (font (size 1.27 1.27) italic) (justify left))
      )
    )
    (symbol "LCD_Display_Screen_0_1"
      (rectangle (start -16.51 19.05) (end 19.05 -21.59)
        (stroke (width 0.254) (type default))
        (fill (type background))
      )
      (rectangle (start -11.43 11.43) (end 13.97 -17.78)
        (stroke (width 0.254) (type default))
        (fill (type none))
      )
    )
    (symbol "LCD_Display_Screen_1_1"
      (pin power_in line (at -8.89 21.59 270) (length 2.54)
        (name "VCC" (effects (font (size 1.27 1.27))))
        (number "1" (effects (font (size 1.27 1.27))))
      )
      (pin power_in line (at -6.35 21.59 270) (length 2.54)
        (name "GND" (effects (font (size 1.27 1.27))))
        (number "2" (effects (font (size 1.27 1.27))))
      )
      (pin input line (at -1.27 21.59 270) (length 2.54)
        (name "~{CS}" (effects (font (size 1.27 1.27))))
        (number "3" (effects (font (size 1.27 1.27))))
      )
      (pin input line (at 11.43 21.59 270) (length 2.54)
        (name "RESET" (effects (font (size 1.27 1.27))))
        (number "4" (effects (font (size 1.27 1.27))))
      )
      (pin input line (at -3.81 21.59 270) (length 2.54)
        (name "D/~{C}" (effects (font (size 1.27 1.27))))
        (number "5" (effects (font (size 1.27 1.27))))
      )
      (pin input line (at 1.27 21.59 270) (length 2.54)
        (name "MOSI" (effects (font (size 1.27 1.27))))
        (number "6" (effects (font (size 1.27 1.27))))
      )
      (pin input line (at 6.35 21.59 270) (length 2.54)
        (name "SCK" (effects (font (size 1.27 1.27))))
        (number "7" (effects (font (size 1.27 1.27))))
      )
      (pin input line (at 8.89 21.59 270) (length 2.54)
        (name "LED" (effects (font (size 1.27 1.27))))
        (number "8" (effects (font (size 1.27 1.27))))
      )
      (pin output line (at 3.81 21.59 270) (length 2.54)
        (name "MISO" (effects (font (size 1.27 1.27))))
        (number "9" (effects (font (size 1.27 1.27))))
      )
    )
  )
  (symbol "Rpi2040" (in_bom yes) (on_board yes)
    (property "Reference" "U8" (at 62.357 5.2071 0)
      (effects (font (size 1.27 1.27)) (justify left))
    )
    (property "Value" "Rpi2040" (at 62.357 2.6671 0)
      (effects (font (size 1.27 1.27)) (justify left))
    )
    (property "Footprint" "" (at 6.35 4.318 90)
      (effects (font (size 1.27 1.27)) hide)
    )
    (property "Datasheet" "" (at 6.35 4.318 90)
      (effects (font (size 1.27 1.27)) hide)
    )
    (symbol "Rpi2040_0_0"
      (rectangle (start -10.033 -20.955) (end 13.97 -29.21)
        (stroke (width 0) (type default))
        (fill (type none))
      )
      (rectangle (start -0.889 -90.297) (end 20.828 -97.282)
        (stroke (width 0) (type default))
        (fill (type none))
      )
      (rectangle (start -0.889 -83.312) (end 20.828 -90.297)
        (stroke (width 0) (type default))
        (fill (type none))
      )
      (polyline
        (pts
          (xy -56.515 -49.911)
          (xy -58.166 -49.911)
        )
        (stroke (width 0.1) (type default))
        (fill (type none))
      )
      (polyline
        (pts
          (xy -38.989 -63.881)
          (xy -38.989 -65.532)
        )
        (stroke (width 0.1) (type default))
        (fill (type none))
      )
      (polyline
        (pts
          (xy -38.989 -35.941)
          (xy -38.989 -34.29)
        )
        (stroke (width 0.1) (type default))
        (fill (type none))
      )
      (polyline
        (pts
          (xy -21.463 -49.911)
          (xy -19.812 -49.911)
        )
        (stroke (width 0.1) (type default))
        (fill (type none))
      )
      (polyline
        (pts
          (xy -57.658 -49.403)
          (xy -58.293 -49.911)
          (xy -57.658 -50.419)
        )
        (stroke (width 0.1) (type default))
        (fill (type none))
      )
      (polyline
        (pts
          (xy -39.497 -65.024)
          (xy -38.989 -65.659)
          (xy -38.481 -65.024)
        )
        (stroke (width 0.1) (type default))
        (fill (type none))
      )
      (polyline
        (pts
          (xy -38.481 -34.798)
          (xy -38.989 -34.163)
          (xy -39.497 -34.798)
        )
        (stroke (width 0.1) (type default))
        (fill (type none))
      )
      (polyline
        (pts
          (xy -20.32 -50.419)
          (xy -19.685 -49.911)
          (xy -20.32 -49.403)
        )
        (stroke (width 0.1) (type default))
        (fill (type none))
      )
      (rectangle (start 56.769 3.556) (end 60.833 -5.334)
        (stroke (width 0) (type default))
        (fill (type none))
      )
      (text "ARDUINO" (at -19.05 -93.98 0)
        (effects (font (size 3.5 3.5)))
      )
      (text "BRACCIO" (at 9.906 -87.249 0)
        (effects (font (size 3 3) bold))
      )
      (text "CARRIER" (at 9.779 -93.599 0)
        (effects (font (size 3 3)))
      )
      (text "ENTRER" (at 44.069 -32.385 0)
        (effects (font (size 1.27 1.27)))
      )
      (text "J1" (at 1.524 -22.733 0)
        (effects (font (size 1.27 1.27)))
      )
      (text "M1" (at -31.75 30.48 0)
        (effects (font (size 1.27 1.27)))
      )
      (text "M2" (at -20.32 30.48 0)
        (effects (font (size 1.27 1.27)))
      )
      (text "M3" (at -8.89 30.48 0)
        (effects (font (size 1.27 1.27)))
      )
      (text "M4" (at 2.54 30.48 0)
        (effects (font (size 1.27 1.27)))
      )
      (text "M5" (at 13.97 30.48 0)
        (effects (font (size 1.27 1.27)))
      )
      (text "M6" (at 25.4 30.48 0)
        (effects (font (size 1.27 1.27)))
      )
      (text "USB C" (at 59.309 -0.254 900)
        (effects (font (size 1.27 1.27)))
      )
    )
    (symbol "Rpi2040_0_1"
      (rectangle (start -33.02 41.91) (end -22.86 38.354)
        (stroke (width 0) (type default))
        (fill (type background))
      )
      (circle (center -31.75 40.64) (radius 0.8032)
        (stroke (width 0) (type default))
        (fill (type none))
      )
      (circle (center -29.21 40.64) (radius 0.8032)
        (stroke (width 0) (type default))
        (fill (type none))
      )
      (circle (center -26.67 40.64) (radius 0.8032)
        (stroke (width 0) (type default))
        (fill (type none))
      )
      (circle (center -24.13 40.64) (radius 0.8032)
        (stroke (width 0) (type default))
        (fill (type none))
      )
      (rectangle (start -21.59 41.91) (end -11.43 38.354)
        (stroke (width 0) (type default))
        (fill (type background))
      )
      (rectangle (start -20.32 12.7) (end 24.13 -5.08)
        (stroke (width 0.254) (type default))
        (fill (type background))
      )
      (circle (center -20.32 40.64) (radius 0.8032)
        (stroke (width 0) (type default))
        (fill (type none))
      )
      (rectangle (start -19.05 -5.08) (end 21.59 -16.51)
        (stroke (width 0) (type default))
        (fill (type none))
      )
      (rectangle (start -19.05 24.511) (end 21.59 12.573)
        (stroke (width 0) (type default))
        (fill (type none))
      )
      (circle (center -17.78 40.64) (radius 0.8032)
        (stroke (width 0) (type default))
        (fill (type none))
      )
      (circle (center -15.24 40.64) (radius 0.8032)
        (stroke (width 0) (type default))
        (fill (type none))
      )
      (circle (center -12.7 40.64) (radius 0.8032)
        (stroke (width 0) (type default))
        (fill (type none))
      )
      (rectangle (start -10.16 41.91) (end 0 38.354)
        (stroke (width 0) (type default))
        (fill (type background))
      )
      (circle (center -8.89 40.64) (radius 0.8032)
        (stroke (width 0) (type default))
        (fill (type none))
      )
      (circle (center -6.35 40.64) (radius 0.8032)
        (stroke (width 0) (type default))
        (fill (type none))
      )
      (circle (center -3.81 40.64) (radius 0.8032)
        (stroke (width 0) (type default))
        (fill (type none))
      )
      (circle (center -1.27 40.64) (radius 0.8032)
        (stroke (width 0) (type default))
        (fill (type none))
      )
      (rectangle (start 1.27 41.91) (end 11.43 38.354)
        (stroke (width 0) (type default))
        (fill (type background))
      )
      (circle (center 2.54 40.64) (radius 0.8032)
        (stroke (width 0) (type default))
        (fill (type none))
      )
      (circle (center 5.08 40.64) (radius 0.8032)
        (stroke (width 0) (type default))
        (fill (type none))
      )
      (circle (center 7.62 40.64) (radius 0.8032)
        (stroke (width 0) (type default))
        (fill (type none))
      )
      (circle (center 10.16 40.64) (radius 0.8032)
        (stroke (width 0) (type default))
        (fill (type none))
      )
      (rectangle (start 12.7 41.91) (end 22.86 38.354)
        (stroke (width 0) (type default))
        (fill (type background))
      )
      (circle (center 13.97 40.64) (radius 0.8032)
        (stroke (width 0) (type default))
        (fill (type none))
      )
      (circle (center 16.51 40.64) (radius 0.8032)
        (stroke (width 0) (type default))
        (fill (type none))
      )
      (circle (center 19.05 40.64) (radius 0.8032)
        (stroke (width 0) (type default))
        (fill (type none))
      )
      (circle (center 21.59 40.64) (radius 0.8032)
        (stroke (width 0) (type default))
        (fill (type none))
      )
      (rectangle (start 24.13 41.91) (end 34.29 38.354)
        (stroke (width 0) (type default))
        (fill (type background))
      )
      (circle (center 25.4 40.64) (radius 0.8032)
        (stroke (width 0) (type default))
        (fill (type none))
      )
      (circle (center 27.94 40.64) (radius 0.8032)
        (stroke (width 0) (type default))
        (fill (type none))
      )
      (circle (center 30.48 40.64) (radius 0.8032)
        (stroke (width 0) (type default))
        (fill (type none))
      )
      (circle (center 33.02 40.64) (radius 0.8032)
        (stroke (width 0) (type default))
        (fill (type none))
      )
    )
    (symbol "Rpi2040_1_1"
      (polyline
        (pts
          (xy -37.084 41.91)
          (xy 39.116 41.91)
          (xy 39.116 19.05)
          (xy 60.96 19.05)
          (xy 60.96 -106.68)
          (xy -59.69 -106.68)
          (xy -59.69 20.32)
          (xy -37.084 20.32)
          (xy -37.084 41.91)
        )
        (stroke (width 0.3) (type default))
        (fill (type background))
      )
      (pin input line (at -31.75 40.64 270) (length 2.54)
        (name "+3.3V" (effects (font (size 1.27 1.27))))
        (number "" (effects (font (size 1.27 1.27))))
      )
      (pin input line (at -20.32 40.64 270) (length 2.54)
        (name "+3.3V" (effects (font (size 1.27 1.27))))
        (number "" (effects (font (size 1.27 1.27))))
      )
      (pin bidirectional line (at -13.97 -17.78 90) (length 1)
        (name "+3.3V" (effects (font (size 1 1))))
        (number "" (effects (font (size 1 1))))
      )
      (pin input line (at -8.89 40.64 270) (length 2.54)
        (name "+3.3V" (effects (font (size 1.27 1.27))))
        (number "" (effects (font (size 1.27 1.27))))
      )
      (pin input line (at 2.54 40.64 270) (length 2.54)
        (name "+3.3V" (effects (font (size 1.27 1.27))))
        (number "" (effects (font (size 1.27 1.27))))
      )
      (pin input line (at 13.97 40.64 270) (length 2.54)
        (name "+3.3V" (effects (font (size 1.27 1.27))))
        (number "" (effects (font (size 1.27 1.27))))
      )
      (pin input line (at 25.4 40.64 270) (length 2.54)
        (name "+3.3V" (effects (font (size 1.27 1.27))))
        (number "" (effects (font (size 1.27 1.27))))
      )
      (pin bidirectional line (at 11.176 -17.78 90) (length 1)
        (name "+5V" (effects (font (size 1 1))))
        (number "" (effects (font (size 1 1))))
      )
      (pin bidirectional line (at -9.017 -17.78 90) (length 1)
        (name "A0/D14" (effects (font (size 1 1))))
        (number "" (effects (font (size 1 1))))
      )
      (pin bidirectional line (at -6.477 -17.78 90) (length 1)
        (name "A1/D14" (effects (font (size 1 1))))
        (number "" (effects (font (size 1 1))))
      )
      (pin bidirectional line (at -3.937 -17.78 90) (length 1)
        (name "A2D16" (effects (font (size 1 1))))
        (number "" (effects (font (size 1 1))))
      )
      (pin bidirectional line (at -1.397 -17.78 90) (length 1)
        (name "A3/D17" (effects (font (size 1 1))))
        (number "" (effects (font (size 1 1))))
      )
      (pin bidirectional line (at 1.143 -17.78 90) (length 1)
        (name "A4/D18" (effects (font (size 1 1))))
        (number "" (effects (font (size 1 1))))
      )
      (pin bidirectional line (at 3.683 -17.78 90) (length 1)
        (name "A5/D19" (effects (font (size 1 1))))
        (number "" (effects (font (size 1 1))))
      )
      (pin bidirectional line (at 6.223 -17.78 90) (length 1)
        (name "A6/D20" (effects (font (size 1 1))))
        (number "" (effects (font (size 1 1))))
      )
      (pin bidirectional line (at 8.636 -17.78 90) (length 1)
        (name "A7/D21" (effects (font (size 1 1))))
        (number "" (effects (font (size 1 1))))
      )
      (pin bidirectional line (at -11.43 -17.78 90) (length 1)
        (name "AREF" (effects (font (size 1 1))))
        (number "" (effects (font (size 1 1))))
      )
      (pin output line (at -26.67 40.64 270) (length 2.54)
        (name "B01" (effects (font (size 1.27 1.27))))
        (number "" (effects (font (size 1.27 1.27))))
      )
      (pin output line (at -15.24 40.64 270) (length 2.54)
        (name "B01" (effects (font (size 1.27 1.27))))
        (number "" (effects (font (size 1.27 1.27))))
      )
      (pin output line (at -3.81 40.64 270) (length 2.54)
        (name "B01" (effects (font (size 1.27 1.27))))
        (number "" (effects (font (size 1.27 1.27))))
      )
      (pin output line (at 7.62 40.64 270) (length 2.54)
        (name "B01" (effects (font (size 1.27 1.27))))
        (number "" (effects (font (size 1.27 1.27))))
      )
      (pin output line (at 19.05 40.64 270) (length 2.54)
        (name "B01" (effects (font (size 1.27 1.27))))
        (number "" (effects (font (size 1.27 1.27))))
      )
      (pin output line (at 30.48 40.64 270) (length 2.54)
        (name "B01" (effects (font (size 1.27 1.27))))
        (number "" (effects (font (size 1.27 1.27))))
      )
      (pin output line (at -24.13 40.64 270) (length 2.54)
        (name "B02" (effects (font (size 1.27 1.27))))
        (number "" (effects (font (size 1.27 1.27))))
      )
      (pin output line (at -12.7 40.64 270) (length 2.54)
        (name "B02" (effects (font (size 1.27 1.27))))
        (number "" (effects (font (size 1.27 1.27))))
      )
      (pin output line (at -1.27 40.64 270) (length 2.54)
        (name "B02" (effects (font (size 1.27 1.27))))
        (number "" (effects (font (size 1.27 1.27))))
      )
      (pin output line (at 10.16 40.64 270) (length 2.54)
        (name "B02" (effects (font (size 1.27 1.27))))
        (number "" (effects (font (size 1.27 1.27))))
      )
      (pin output line (at 21.59 40.64 270) (length 2.54)
        (name "B02" (effects (font (size 1.27 1.27))))
        (number "" (effects (font (size 1.27 1.27))))
      )
      (pin output line (at 33.02 40.64 270) (length 2.54)
        (name "B02" (effects (font (size 1.27 1.27))))
        (number "" (effects (font (size 1.27 1.27))))
      )
      (pin bidirectional line (at 18.288 25.4 270) (length 1)
        (name "D0/TX_485" (effects (font (size 1 1))))
        (number "" (effects (font (size 1 1))))
      )
      (pin bidirectional line (at 16.002 25.4 270) (length 1)
        (name "D1/RX_485" (effects (font (size 1 1))))
        (number "" (effects (font (size 1 1))))
      )
      (pin bidirectional line (at -11.43 25.4 270) (length 1)
        (name "D10/SS" (effects (font (size 1 1))))
        (number "" (effects (font (size 1 1))))
      )
      (pin bidirectional line (at -13.97 25.4 270) (length 1)
        (name "D11/COPI" (effects (font (size 1 1))))
        (number "" (effects (font (size 1 1))))
      )
      (pin bidirectional line (at -16.51 25.4 270) (length 1)
        (name "D12/CIPO" (effects (font (size 1 1))))
        (number "" (effects (font (size 1 1))))
      )
      (pin bidirectional line (at -16.51 -17.78 90) (length 1)
        (name "D13/SCK" (effects (font (size 1 1))))
        (number "" (effects (font (size 1 1))))
      )
      (pin bidirectional line (at 7.112 25.4 270) (length 1)
        (name "D2/UP" (effects (font (size 1 1))))
        (number "" (effects (font (size 1 1))))
      )
      (pin bidirectional line (at 4.826 25.4 270) (length 1)
        (name "D3/DW" (effects (font (size 1 1))))
        (number "" (effects (font (size 1 1))))
      )
      (pin bidirectional line (at 2.54 25.4 270) (length 1)
        (name "D4/R" (effects (font (size 1 1))))
        (number "" (effects (font (size 1 1))))
      )
      (pin bidirectional line (at 0.254 25.4 270) (length 1)
        (name "D5/L" (effects (font (size 1 1))))
        (number "" (effects (font (size 1 1))))
      )
      (pin bidirectional line (at -2.032 25.4 270) (length 1)
        (name "D6" (effects (font (size 1 1))))
        (number "" (effects (font (size 1 1))))
      )
      (pin bidirectional line (at -4.064 25.4 270) (length 1)
        (name "D7/RTS485" (effects (font (size 1 1))))
        (number "" (effects (font (size 1 1))))
      )
      (pin bidirectional line (at -6.35 25.4 270) (length 1)
        (name "D8/RST485" (effects (font (size 1 1))))
        (number "" (effects (font (size 1 1))))
      )
      (pin bidirectional line (at -8.89 25.4 270) (length 1)
        (name "D9" (effects (font (size 1 1))))
        (number "" (effects (font (size 1 1))))
      )
      (pin output line (at -29.21 40.64 270) (length 2.54)
        (name "GND" (effects (font (size 1.27 1.27))))
        (number "" (effects (font (size 1.27 1.27))))
      )
      (pin output line (at -17.78 40.64 270) (length 2.54)
        (name "GND" (effects (font (size 1.27 1.27))))
        (number "" (effects (font (size 1.27 1.27))))
      )
      (pin output line (at -6.35 40.64 270) (length 2.54)
        (name "GND" (effects (font (size 1.27 1.27))))
        (number "" (effects (font (size 1.27 1.27))))
      )
      (pin output line (at 5.08 40.64 270) (length 2.54)
        (name "GND" (effects (font (size 1.27 1.27))))
        (number "" (effects (font (size 1.27 1.27))))
      )
      (pin bidirectional line (at 11.176 25.4 270) (length 1)
        (name "GND" (effects (font (size 1 1))))
        (number "" (effects (font (size 1 1))))
      )
      (pin bidirectional line (at 16.256 -17.78 90) (length 1)
        (name "GND" (effects (font (size 1 1))))
        (number "" (effects (font (size 1 1))))
      )
      (pin output line (at 16.51 40.64 270) (length 2.54)
        (name "GND" (effects (font (size 1.27 1.27))))
        (number "" (effects (font (size 1.27 1.27))))
      )
      (pin output line (at 27.94 40.64 270) (length 2.54)
        (name "GND" (effects (font (size 1.27 1.27))))
        (number "" (effects (font (size 1.27 1.27))))
      )
      (pin bidirectional line (at 13.462 25.4 270) (length 1)
        (name "RESET" (effects (font (size 1 1))))
        (number "" (effects (font (size 1 1))))
      )
      (pin bidirectional line (at 13.97 -17.78 90) (length 1)
        (name "RESET" (effects (font (size 1 1))))
        (number "" (effects (font (size 1 1))))
      )
      (pin bidirectional line (at 18.796 -17.78 90) (length 1)
        (name "VUSB" (effects (font (size 1 1))))
        (number "" (effects (font (size 1 1))))
      )
      (pin bidirectional line (at 18.288 15.24 270) (length 2.54)
        (name "TX1" (effects (font (size 1.27 1.27))))
        (number "1" (effects (font (size 1.27 1.27))))
      )
      (pin passive line (at -7.62 -31.75 90) (length 2.5)
        (name "VCC" (effects (font (size 1.27 1.27))))
        (number "1" (effects (font (size 1.27 1.27))))
      )
      (pin bidirectional line (at -4.064 15.24 270) (length 2.54)
        (name "D7" (effects (font (size 1.27 1.27))))
        (number "10" (effects (font (size 1.27 1.27))))
      )
      (pin bidirectional line (at -6.35 15.24 270) (length 2.54)
        (name "D8" (effects (font (size 1.27 1.27))))
        (number "11" (effects (font (size 1.27 1.27))))
      )
      (pin bidirectional line (at -8.89 15.24 270) (length 2.54)
        (name "D9" (effects (font (size 1.27 1.27))))
        (number "12" (effects (font (size 1.27 1.27))))
      )
      (pin bidirectional line (at -11.43 15.24 270) (length 2.54)
        (name "D10" (effects (font (size 1.27 1.27))))
        (number "13" (effects (font (size 1.27 1.27))))
      )
      (pin power_out line (at 11.176 -7.62 90) (length 2.54)
        (name "+5V" (effects (font (size 1.27 1.27))))
        (number "14" (effects (font (size 1.27 1.27))))
      )
      (pin bidirectional line (at -13.97 15.24 270) (length 2.54)
        (name "D11" (effects (font (size 1.27 1.27))))
        (number "14" (effects (font (size 1.27 1.27))))
      )
      (pin bidirectional line (at -16.51 15.24 270) (length 2.54)
        (name "D12" (effects (font (size 1.27 1.27))))
        (number "15" (effects (font (size 1.27 1.27))))
      )
      (pin bidirectional line (at -16.51 -7.62 90) (length 2.54)
        (name "D13" (effects (font (size 1.27 1.27))))
        (number "16" (effects (font (size 1.27 1.27))))
      )
      (pin power_out line (at -13.97 -7.62 90) (length 2.54)
        (name "3V3" (effects (font (size 1.27 1.27))))
        (number "17" (effects (font (size 1.27 1.27))))
      )
      (pin bidirectional line (at -11.43 -7.62 90) (length 2.54)
        (name "REF" (effects (font (size 1.27 1.27))))
        (number "18" (effects (font (size 1.27 1.27))))
      )
      (pin bidirectional line (at -9.017 -7.493 90) (length 2.54)
        (name "A0" (effects (font (size 1.27 1.27))))
        (number "19" (effects (font (size 1.27 1.27))))
      )
      (pin passive line (at -5.334 -31.75 90) (length 2.5)
        (name "GND" (effects (font (size 1.27 1.27))))
        (number "2" (effects (font (size 1.27 1.27))))
      )
      (pin bidirectional line (at 16.002 15.24 270) (length 2.54)
        (name "RX0" (effects (font (size 1.27 1.27))))
        (number "2" (effects (font (size 1.27 1.27))))
      )
      (pin bidirectional line (at -6.477 -7.493 90) (length 2.54)
        (name "A1" (effects (font (size 1.27 1.27))))
        (number "20" (effects (font (size 1.27 1.27))))
      )
      (pin bidirectional line (at -3.937 -7.493 90) (length 2.54)
        (name "A2" (effects (font (size 1.27 1.27))))
        (number "21" (effects (font (size 1.27 1.27))))
      )
      (pin bidirectional line (at -1.397 -7.493 90) (length 2.54)
        (name "A3" (effects (font (size 1.27 1.27))))
        (number "22" (effects (font (size 1.27 1.27))))
      )
      (pin bidirectional line (at 1.143 -7.493 90) (length 2.54)
        (name "A4" (effects (font (size 1.27 1.27))))
        (number "23" (effects (font (size 1.27 1.27))))
      )
      (pin bidirectional line (at 3.683 -7.747 90) (length 2.54)
        (name "A5" (effects (font (size 1.27 1.27))))
        (number "24" (effects (font (size 1.27 1.27))))
      )
      (pin bidirectional line (at 6.223 -7.493 90) (length 2.54)
        (name "A6" (effects (font (size 1.27 1.27))))
        (number "25" (effects (font (size 1.27 1.27))))
      )
      (pin bidirectional line (at 8.636 -7.62 90) (length 2.54)
        (name "A7" (effects (font (size 1.27 1.27))))
        (number "26" (effects (font (size 1.27 1.27))))
      )
      (pin passive line (at -0.508 -31.75 90) (length 2.5)
        (name "CS" (effects (font (size 1.27 1.27))))
        (number "3" (effects (font (size 1.27 1.27))))
      )
      (pin bidirectional line (at 13.462 15.24 270) (length 2.54)
        (name "RTX" (effects (font (size 1.27 1.27))))
        (number "3" (effects (font (size 1.27 1.27))))
      )
      (pin input line (at 13.97 -7.62 90) (length 2.54)
        (name "~{RESET}" (effects (font (size 1.27 1.27))))
        (number "3" (effects (font (size 1.27 1.27))))
      )
      (pin power_in line (at 18.796 -7.62 90) (length 2.54)
        (name "VIN" (effects (font (size 1.27 1.27))))
        (number "30" (effects (font (size 1.27 1.27))))
      )
      (pin power_in line (at 11.176 15.24 270) (length 2.54)
        (name "GND" (effects (font (size 1.27 1.27))))
        (number "4" (effects (font (size 1.27 1.27))))
      )
      (pin power_in line (at 16.256 -7.62 90) (length 2.54)
        (name "GND" (effects (font (size 1.27 1.27))))
        (number "4" (effects (font (size 1.27 1.27))))
      )
      (pin passive line (at 12.192 -31.75 90) (length 2.5)
        (name "RESET" (effects (font (size 1.27 1.27))))
        (number "4" (effects (font (size 1.27 1.27))))
      )
      (pin passive line (at -3.048 -31.75 90) (length 2.5)
        (name "D/C" (effects (font (size 1.27 1.27))))
        (number "5" (effects (font (size 1.27 1.27))))
      )
      (pin bidirectional line (at 7.112 15.24 270) (length 2.54)
        (name "D2" (effects (font (size 1.27 1.27))))
        (number "5" (effects (font (size 1.27 1.27))))
      )
      (pin bidirectional line (at -22.86 3.81 0) (length 2.54)
        (name "USB" (effects (font (size 1.27 1.27))))
        (number "50" (effects (font (size 1.27 1.27))))
      )
      (pin bidirectional line (at 4.826 15.24 270) (length 2.54)
        (name "D3" (effects (font (size 1.27 1.27))))
        (number "6" (effects (font (size 1.27 1.27))))
      )
      (pin passive line (at 2.032 -31.75 90) (length 2.5)
        (name "MOSI" (effects (font (size 1.27 1.27))))
        (number "6" (effects (font (size 1.27 1.27))))
      )
      (pin bidirectional line (at 2.54 15.24 270) (length 2.54)
        (name "D4" (effects (font (size 1.27 1.27))))
        (number "7" (effects (font (size 1.27 1.27))))
      )
      (pin passive line (at 7.112 -31.75 90) (length 2.5)
        (name "SCK" (effects (font (size 1.27 1.27))))
        (number "7" (effects (font (size 1.27 1.27))))
      )
      (pin bidirectional line (at 0.254 15.24 270) (length 2.54)
        (name "D5" (effects (font (size 1.27 1.27))))
        (number "8" (effects (font (size 1.27 1.27))))
      )
      (pin passive line (at 9.652 -31.75 90) (length 2.5)
        (name "LED" (effects (font (size 1.27 1.27))))
        (number "8" (effects (font (size 1.27 1.27))))
      )
      (pin bidirectional line (at -2.032 15.24 270) (length 2.54)
        (name "D6" (effects (font (size 1.27 1.27))))
        (number "9" (effects (font (size 1.27 1.27))))
      )
      (pin passive line (at 4.572 -31.75 90) (length 2.5)
        (name "MISO" (effects (font (size 1.27 1.27))))
        (number "9" (effects (font (size 1.27 1.27))))
      )
    )
  )
)
