(kicad_symbol_lib (version 20220914) (generator kicad_symbol_editor)
  (symbol "Fan" (pin_names (offset 0)) (in_bom yes) (on_board yes)
    (property "Reference" "M2" (at 0 -9.017 90)
      (effects (font (size 1.27 1.27)) hide)
    )
    (property "Value" "Fan" (at 0 4.8768 90)
      (effects (font (size 1.27 1.27)))
    )
    (property "Footprint" "" (at -0.254 0 0)
      (effects (font (size 1.27 1.27)) hide)
    )
    (property "Datasheet" "~" (at -0.254 0 0)
      (effects (font (size 1.27 1.27)) hide)
    )
    (property "ki_keywords" "Fan Motor" (at 0 0 0)
      (effects (font (size 1.27 1.27)) hide)
    )
    (property "ki_description" "Fan" (at 0 0 0)
      (effects (font (size 1.27 1.27)) hide)
    )
    (property "ki_fp_filters" "PinHeader*P2.54mm* TerminalBlock*" (at 0 0 0)
      (effects (font (size 1.27 1.27)) hide)
    )
    (symbol "Fan_0_1"
      (arc (start -2.54 -0.508) (mid 0.0028 0.9121) (end 0 3.81)
        (stroke (width 0) (type default))
        (fill (type none))
      )
      (polyline
        (pts
          (xy 0 -5.08)
          (xy 0 -4.572)
        )
        (stroke (width 0) (type default))
        (fill (type none))
      )
      (polyline
        (pts
          (xy 0 -2.2352)
          (xy 0 -2.6416)
        )
        (stroke (width 0) (type default))
        (fill (type none))
      )
      (polyline
        (pts
          (xy 0 4.2672)
          (xy 0 4.6228)
        )
        (stroke (width 0) (type default))
        (fill (type none))
      )
      (polyline
        (pts
          (xy 0 4.572)
          (xy 0 5.08)
        )
        (stroke (width 0) (type default))
        (fill (type none))
      )
      (circle (center 0 1.016) (radius 3.2512)
        (stroke (width 0.254) (type default))
        (fill (type none))
      )
      (arc (start 0 3.81) (mid 0.053 0.921) (end 2.54 -0.508)
        (stroke (width 0) (type default))
        (fill (type none))
      )
      (arc (start 2.54 -0.508) (mid 0 1.0618) (end -2.54 -0.508)
        (stroke (width 0) (type default))
        (fill (type none))
      )
    )
    (symbol "Fan_1_1"
      (pin passive line (at 0 7.62 270) (length 2.54)
        (name "+" (effects (font (size 1.27 1.27))))
        (number "1" (effects (font (size 1.27 1.27))))
      )
      (pin passive line (at 0 -5.08 90) (length 2.54)
        (name "-" (effects (font (size 1.27 1.27))))
        (number "2" (effects (font (size 1.27 1.27))))
      )
    )
  )
)
