(kicad_symbol_lib (version 20220914) (generator kicad_symbol_editor)
  (symbol "LED" (pin_numbers hide) (pin_names (offset 1.016) hide) (in_bom yes) (on_board yes)
    (property "Reference" "D7" (at -3.81 0.3174 90)
      (effects (font (size 1.27 1.27)) (justify right) hide)
    )
    (property "Value" "LED bleu" (at -3.175 -0.254 90)
      (effects (font (size 1.27 1.27) (color 0 0 255 1)) (justify right))
    )
    (property "Footprint" "" (at 0 0 0)
      (effects (font (size 1.27 1.27)) hide)
    )
    (property "Datasheet" "~" (at 0 0 0)
      (effects (font (size 1.27 1.27)) hide)
    )
    (property "ki_keywords" "LED diode" (at 0 0 0)
      (effects (font (size 1.27 1.27)) hide)
    )
    (property "ki_description" "Light emitting diode" (at 0 0 0)
      (effects (font (size 1.27 1.27)) hide)
    )
    (property "ki_fp_filters" "LED* LED_SMD:* LED_THT:*" (at 0 0 0)
      (effects (font (size 1.27 1.27)) hide)
    )
    (symbol "LED_0_1"
      (polyline
        (pts
          (xy -1.27 -1.27)
          (xy -1.27 1.27)
        )
        (stroke (width 0.254) (type default))
        (fill (type none))
      )
      (polyline
        (pts
          (xy -1.27 0)
          (xy 1.27 0)
        )
        (stroke (width 0) (type default))
        (fill (type none))
      )
      (polyline
        (pts
          (xy 1.27 -1.27)
          (xy 1.27 1.27)
          (xy -1.27 0)
          (xy 1.27 -1.27)
        )
        (stroke (width 0.254) (type default))
        (fill (type none))
      )
      (polyline
        (pts
          (xy -3.048 -0.762)
          (xy -4.572 -2.286)
          (xy -3.81 -2.286)
          (xy -4.572 -2.286)
          (xy -4.572 -1.524)
        )
        (stroke (width 0) (type default))
        (fill (type none))
      )
      (polyline
        (pts
          (xy -1.778 -0.762)
          (xy -3.302 -2.286)
          (xy -2.54 -2.286)
          (xy -3.302 -2.286)
          (xy -3.302 -1.524)
        )
        (stroke (width 0) (type default))
        (fill (type none))
      )
    )
    (symbol "LED_1_1"
      (pin passive line (at -3.81 0 0) (length 2.54)
        (name "K" (effects (font (size 1.27 1.27))))
        (number "1" (effects (font (size 1.27 1.27))))
      )
      (pin passive line (at 3.81 0 180) (length 2.54)
        (name "A" (effects (font (size 1.27 1.27))))
        (number "2" (effects (font (size 1.27 1.27))))
      )
    )
  )
)
