ISO-10303-21;
HEADER;
/* Generated by software containing ST-Developer
 * from STEP Tools, Inc. (www.steptools.com) 
 */

FILE_DESCRIPTION(
/* description */ (''),
/* implementation_level */ '2;1');

FILE_NAME(
/* name */ 'LED_Bleu_.step',
/* time_stamp */ '2023-07-07T11:10:17+02:00',
/* author */ (''),
/* organization */ (''),
/* preprocessor_version */ 'ST-DEVELOPER v19.2',
/* originating_system */ 'Autodesk Translation Framework v12.6.0.85',
/* authorisation */ '');

FILE_SCHEMA (('AUTOMOTIVE_DESIGN { 1 0 10303 214 3 1 1 }'));
ENDSEC;

DATA;
#10=MECHANICAL_DESIGN_GEOMETRIC_PRESENTATION_REPRESENTATION('',(#26,#27,
#28,#29,#30,#31,#32),#489);
#11=SHAPE_REPRESENTATION_RELATIONSHIP('SRR','None',#496,#12);
#12=ADVANCED_BREP_SHAPE_REPRESENTATION('',(#13),#488);
#13=MANIFOLD_SOLID_BREP('Volumenk\X\F6rper1',#292);
#14=SPHERICAL_SURFACE('',#324,2.5);
#15=FACE_BOUND('',#63,.T.);
#16=FACE_BOUND('',#64,.T.);
#17=CYLINDRICAL_SURFACE('',#320,3.);
#18=CYLINDRICAL_SURFACE('',#328,2.5);
#19=CIRCLE('',#317,2.5);
#20=CIRCLE('',#318,2.5);
#21=CIRCLE('',#319,3.);
#22=CIRCLE('',#321,3.);
#23=CIRCLE('',#325,2.5);
#24=CIRCLE('',#326,2.5);
#25=CIRCLE('',#327,2.5);
#26=STYLED_ITEM('',(#507),#286);
#27=STYLED_ITEM('',(#507),#287);
#28=STYLED_ITEM('',(#507),#288);
#29=STYLED_ITEM('',(#507),#289);
#30=STYLED_ITEM('',(#507),#290);
#31=STYLED_ITEM('',(#507),#291);
#32=STYLED_ITEM('',(#506),#13);
#33=FACE_OUTER_BOUND('',#49,.T.);
#34=FACE_OUTER_BOUND('',#50,.T.);
#35=FACE_OUTER_BOUND('',#51,.T.);
#36=FACE_OUTER_BOUND('',#52,.T.);
#37=FACE_OUTER_BOUND('',#53,.T.);
#38=FACE_OUTER_BOUND('',#54,.T.);
#39=FACE_OUTER_BOUND('',#55,.T.);
#40=FACE_OUTER_BOUND('',#56,.T.);
#41=FACE_OUTER_BOUND('',#57,.T.);
#42=FACE_OUTER_BOUND('',#58,.T.);
#43=FACE_OUTER_BOUND('',#59,.T.);
#44=FACE_OUTER_BOUND('',#60,.T.);
#45=FACE_OUTER_BOUND('',#61,.T.);
#46=FACE_OUTER_BOUND('',#62,.T.);
#47=FACE_OUTER_BOUND('',#65,.T.);
#48=FACE_OUTER_BOUND('',#66,.T.);
#49=EDGE_LOOP('',(#189,#190,#191,#192));
#50=EDGE_LOOP('',(#193,#194,#195,#196));
#51=EDGE_LOOP('',(#197,#198,#199,#200));
#52=EDGE_LOOP('',(#201,#202,#203,#204));
#53=EDGE_LOOP('',(#205,#206,#207,#208));
#54=EDGE_LOOP('',(#209,#210,#211,#212));
#55=EDGE_LOOP('',(#213,#214,#215,#216));
#56=EDGE_LOOP('',(#217,#218,#219,#220));
#57=EDGE_LOOP('',(#221,#222,#223,#224));
#58=EDGE_LOOP('',(#225,#226,#227,#228));
#59=EDGE_LOOP('',(#229,#230,#231,#232,#233));
#60=EDGE_LOOP('',(#234,#235,#236,#237));
#61=EDGE_LOOP('',(#238,#239,#240,#241,#242));
#62=EDGE_LOOP('',(#243,#244));
#63=EDGE_LOOP('',(#245,#246,#247,#248));
#64=EDGE_LOOP('',(#249,#250,#251,#252));
#65=EDGE_LOOP('',(#253,#254,#255,#256));
#66=EDGE_LOOP('',(#257,#258,#259,#260,#261,#262));
#67=LINE('',#411,#97);
#68=LINE('',#413,#98);
#69=LINE('',#415,#99);
#70=LINE('',#416,#100);
#71=LINE('',#420,#101);
#72=LINE('',#422,#102);
#73=LINE('',#424,#103);
#74=LINE('',#425,#104);
#75=LINE('',#429,#105);
#76=LINE('',#430,#106);
#77=LINE('',#431,#107);
#78=LINE('',#434,#108);
#79=LINE('',#435,#109);
#80=LINE('',#438,#110);
#81=LINE('',#439,#111);
#82=LINE('',#441,#112);
#83=LINE('',#445,#113);
#84=LINE('',#446,#114);
#85=LINE('',#447,#115);
#86=LINE('',#450,#116);
#87=LINE('',#451,#117);
#88=LINE('',#454,#118);
#89=LINE('',#455,#119);
#90=LINE('',#457,#120);
#91=LINE('',#461,#121);
#92=LINE('',#466,#122);
#93=LINE('',#470,#123);
#94=LINE('',#473,#124);
#95=LINE('',#475,#125);
#96=LINE('',#485,#126);
#97=VECTOR('',#333,10.);
#98=VECTOR('',#334,10.);
#99=VECTOR('',#335,10.);
#100=VECTOR('',#336,10.);
#101=VECTOR('',#339,10.);
#102=VECTOR('',#340,10.);
#103=VECTOR('',#341,10.);
#104=VECTOR('',#342,10.);
#105=VECTOR('',#345,10.);
#106=VECTOR('',#346,10.);
#107=VECTOR('',#347,10.);
#108=VECTOR('',#350,10.);
#109=VECTOR('',#351,10.);
#110=VECTOR('',#354,10.);
#111=VECTOR('',#355,10.);
#112=VECTOR('',#358,10.);
#113=VECTOR('',#361,10.);
#114=VECTOR('',#362,10.);
#115=VECTOR('',#363,10.);
#116=VECTOR('',#366,10.);
#117=VECTOR('',#367,10.);
#118=VECTOR('',#370,10.);
#119=VECTOR('',#371,10.);
#120=VECTOR('',#374,10.);
#121=VECTOR('',#377,10.);
#122=VECTOR('',#382,10.);
#123=VECTOR('',#387,10.);
#124=VECTOR('',#390,10.);
#125=VECTOR('',#393,10.);
#126=VECTOR('',#406,2.5);
#127=VERTEX_POINT('',#409);
#128=VERTEX_POINT('',#410);
#129=VERTEX_POINT('',#412);
#130=VERTEX_POINT('',#414);
#131=VERTEX_POINT('',#418);
#132=VERTEX_POINT('',#419);
#133=VERTEX_POINT('',#421);
#134=VERTEX_POINT('',#423);
#135=VERTEX_POINT('',#427);
#136=VERTEX_POINT('',#428);
#137=VERTEX_POINT('',#433);
#138=VERTEX_POINT('',#437);
#139=VERTEX_POINT('',#443);
#140=VERTEX_POINT('',#444);
#141=VERTEX_POINT('',#449);
#142=VERTEX_POINT('',#453);
#143=VERTEX_POINT('',#459);
#144=VERTEX_POINT('',#460);
#145=VERTEX_POINT('',#462);
#146=VERTEX_POINT('',#465);
#147=VERTEX_POINT('',#469);
#148=VERTEX_POINT('',#471);
#149=VERTEX_POINT('',#478);
#150=VERTEX_POINT('',#479);
#151=VERTEX_POINT('',#481);
#152=EDGE_CURVE('',#127,#128,#67,.T.);
#153=EDGE_CURVE('',#128,#129,#68,.T.);
#154=EDGE_CURVE('',#129,#130,#69,.T.);
#155=EDGE_CURVE('',#130,#127,#70,.T.);
#156=EDGE_CURVE('',#131,#132,#71,.T.);
#157=EDGE_CURVE('',#132,#133,#72,.T.);
#158=EDGE_CURVE('',#133,#134,#73,.T.);
#159=EDGE_CURVE('',#134,#131,#74,.T.);
#160=EDGE_CURVE('',#135,#136,#75,.T.);
#161=EDGE_CURVE('',#135,#131,#76,.T.);
#162=EDGE_CURVE('',#136,#134,#77,.T.);
#163=EDGE_CURVE('',#136,#137,#78,.T.);
#164=EDGE_CURVE('',#137,#133,#79,.T.);
#165=EDGE_CURVE('',#137,#138,#80,.T.);
#166=EDGE_CURVE('',#138,#132,#81,.T.);
#167=EDGE_CURVE('',#138,#135,#82,.T.);
#168=EDGE_CURVE('',#139,#140,#83,.T.);
#169=EDGE_CURVE('',#139,#127,#84,.T.);
#170=EDGE_CURVE('',#140,#130,#85,.T.);
#171=EDGE_CURVE('',#140,#141,#86,.T.);
#172=EDGE_CURVE('',#141,#129,#87,.T.);
#173=EDGE_CURVE('',#141,#142,#88,.T.);
#174=EDGE_CURVE('',#142,#128,#89,.T.);
#175=EDGE_CURVE('',#142,#139,#90,.T.);
#176=EDGE_CURVE('',#143,#144,#91,.T.);
#177=EDGE_CURVE('',#144,#145,#19,.T.);
#178=EDGE_CURVE('',#145,#144,#20,.T.);
#179=EDGE_CURVE('',#144,#146,#92,.T.);
#180=EDGE_CURVE('',#146,#143,#21,.T.);
#181=EDGE_CURVE('',#146,#147,#93,.T.);
#182=EDGE_CURVE('',#148,#147,#22,.T.);
#183=EDGE_CURVE('',#143,#148,#94,.T.);
#184=EDGE_CURVE('',#147,#148,#95,.T.);
#185=EDGE_CURVE('',#149,#150,#23,.T.);
#186=EDGE_CURVE('',#151,#150,#24,.T.);
#187=EDGE_CURVE('',#150,#149,#25,.T.);
#188=EDGE_CURVE('',#149,#145,#96,.T.);
#189=ORIENTED_EDGE('',*,*,#152,.T.);
#190=ORIENTED_EDGE('',*,*,#153,.T.);
#191=ORIENTED_EDGE('',*,*,#154,.T.);
#192=ORIENTED_EDGE('',*,*,#155,.T.);
#193=ORIENTED_EDGE('',*,*,#156,.T.);
#194=ORIENTED_EDGE('',*,*,#157,.T.);
#195=ORIENTED_EDGE('',*,*,#158,.T.);
#196=ORIENTED_EDGE('',*,*,#159,.T.);
#197=ORIENTED_EDGE('',*,*,#160,.F.);
#198=ORIENTED_EDGE('',*,*,#161,.T.);
#199=ORIENTED_EDGE('',*,*,#159,.F.);
#200=ORIENTED_EDGE('',*,*,#162,.F.);
#201=ORIENTED_EDGE('',*,*,#163,.F.);
#202=ORIENTED_EDGE('',*,*,#162,.T.);
#203=ORIENTED_EDGE('',*,*,#158,.F.);
#204=ORIENTED_EDGE('',*,*,#164,.F.);
#205=ORIENTED_EDGE('',*,*,#165,.F.);
#206=ORIENTED_EDGE('',*,*,#164,.T.);
#207=ORIENTED_EDGE('',*,*,#157,.F.);
#208=ORIENTED_EDGE('',*,*,#166,.F.);
#209=ORIENTED_EDGE('',*,*,#167,.F.);
#210=ORIENTED_EDGE('',*,*,#166,.T.);
#211=ORIENTED_EDGE('',*,*,#156,.F.);
#212=ORIENTED_EDGE('',*,*,#161,.F.);
#213=ORIENTED_EDGE('',*,*,#168,.F.);
#214=ORIENTED_EDGE('',*,*,#169,.T.);
#215=ORIENTED_EDGE('',*,*,#155,.F.);
#216=ORIENTED_EDGE('',*,*,#170,.F.);
#217=ORIENTED_EDGE('',*,*,#171,.F.);
#218=ORIENTED_EDGE('',*,*,#170,.T.);
#219=ORIENTED_EDGE('',*,*,#154,.F.);
#220=ORIENTED_EDGE('',*,*,#172,.F.);
#221=ORIENTED_EDGE('',*,*,#173,.F.);
#222=ORIENTED_EDGE('',*,*,#172,.T.);
#223=ORIENTED_EDGE('',*,*,#153,.F.);
#224=ORIENTED_EDGE('',*,*,#174,.F.);
#225=ORIENTED_EDGE('',*,*,#175,.F.);
#226=ORIENTED_EDGE('',*,*,#174,.T.);
#227=ORIENTED_EDGE('',*,*,#152,.F.);
#228=ORIENTED_EDGE('',*,*,#169,.F.);
#229=ORIENTED_EDGE('',*,*,#176,.T.);
#230=ORIENTED_EDGE('',*,*,#177,.T.);
#231=ORIENTED_EDGE('',*,*,#178,.T.);
#232=ORIENTED_EDGE('',*,*,#179,.T.);
#233=ORIENTED_EDGE('',*,*,#180,.T.);
#234=ORIENTED_EDGE('',*,*,#180,.F.);
#235=ORIENTED_EDGE('',*,*,#181,.T.);
#236=ORIENTED_EDGE('',*,*,#182,.F.);
#237=ORIENTED_EDGE('',*,*,#183,.F.);
#238=ORIENTED_EDGE('',*,*,#176,.F.);
#239=ORIENTED_EDGE('',*,*,#183,.T.);
#240=ORIENTED_EDGE('',*,*,#184,.F.);
#241=ORIENTED_EDGE('',*,*,#181,.F.);
#242=ORIENTED_EDGE('',*,*,#179,.F.);
#243=ORIENTED_EDGE('',*,*,#184,.T.);
#244=ORIENTED_EDGE('',*,*,#182,.T.);
#245=ORIENTED_EDGE('',*,*,#160,.T.);
#246=ORIENTED_EDGE('',*,*,#163,.T.);
#247=ORIENTED_EDGE('',*,*,#165,.T.);
#248=ORIENTED_EDGE('',*,*,#167,.T.);
#249=ORIENTED_EDGE('',*,*,#168,.T.);
#250=ORIENTED_EDGE('',*,*,#171,.T.);
#251=ORIENTED_EDGE('',*,*,#173,.T.);
#252=ORIENTED_EDGE('',*,*,#175,.T.);
#253=ORIENTED_EDGE('',*,*,#185,.T.);
#254=ORIENTED_EDGE('',*,*,#186,.F.);
#255=ORIENTED_EDGE('',*,*,#186,.T.);
#256=ORIENTED_EDGE('',*,*,#187,.T.);
#257=ORIENTED_EDGE('',*,*,#185,.F.);
#258=ORIENTED_EDGE('',*,*,#188,.T.);
#259=ORIENTED_EDGE('',*,*,#177,.F.);
#260=ORIENTED_EDGE('',*,*,#178,.F.);
#261=ORIENTED_EDGE('',*,*,#188,.F.);
#262=ORIENTED_EDGE('',*,*,#187,.F.);
#263=PLANE('',#306);
#264=PLANE('',#307);
#265=PLANE('',#308);
#266=PLANE('',#309);
#267=PLANE('',#310);
#268=PLANE('',#311);
#269=PLANE('',#312);
#270=PLANE('',#313);
#271=PLANE('',#314);
#272=PLANE('',#315);
#273=PLANE('',#316);
#274=PLANE('',#322);
#275=PLANE('',#323);
#276=ADVANCED_FACE('',(#33),#263,.T.);
#277=ADVANCED_FACE('',(#34),#264,.T.);
#278=ADVANCED_FACE('',(#35),#265,.T.);
#279=ADVANCED_FACE('',(#36),#266,.T.);
#280=ADVANCED_FACE('',(#37),#267,.T.);
#281=ADVANCED_FACE('',(#38),#268,.T.);
#282=ADVANCED_FACE('',(#39),#269,.T.);
#283=ADVANCED_FACE('',(#40),#270,.T.);
#284=ADVANCED_FACE('',(#41),#271,.T.);
#285=ADVANCED_FACE('',(#42),#272,.T.);
#286=ADVANCED_FACE('',(#43),#273,.F.);
#287=ADVANCED_FACE('',(#44),#17,.T.);
#288=ADVANCED_FACE('',(#45),#274,.T.);
#289=ADVANCED_FACE('',(#46,#15,#16),#275,.T.);
#290=ADVANCED_FACE('',(#47),#14,.T.);
#291=ADVANCED_FACE('',(#48),#18,.T.);
#292=CLOSED_SHELL('',(#276,#277,#278,#279,#280,#281,#282,#283,#284,#285,
#286,#287,#288,#289,#290,#291));
#293=DERIVED_UNIT_ELEMENT(#295,1.);
#294=DERIVED_UNIT_ELEMENT(#491,-3.);
#295=(
MASS_UNIT()
NAMED_UNIT(*)
SI_UNIT(.KILO.,.GRAM.)
);
#296=DERIVED_UNIT((#293,#294));
#297=MEASURE_REPRESENTATION_ITEM('density measure',
POSITIVE_RATIO_MEASURE(7850.),#296);
#298=PROPERTY_DEFINITION_REPRESENTATION(#303,#300);
#299=PROPERTY_DEFINITION_REPRESENTATION(#304,#301);
#300=REPRESENTATION('material name',(#302),#488);
#301=REPRESENTATION('density',(#297),#488);
#302=DESCRIPTIVE_REPRESENTATION_ITEM('Acier','Acier');
#303=PROPERTY_DEFINITION('material property','material name',#498);
#304=PROPERTY_DEFINITION('material property','density of part',#498);
#305=AXIS2_PLACEMENT_3D('',#407,#329,#330);
#306=AXIS2_PLACEMENT_3D('',#408,#331,#332);
#307=AXIS2_PLACEMENT_3D('',#417,#337,#338);
#308=AXIS2_PLACEMENT_3D('',#426,#343,#344);
#309=AXIS2_PLACEMENT_3D('',#432,#348,#349);
#310=AXIS2_PLACEMENT_3D('',#436,#352,#353);
#311=AXIS2_PLACEMENT_3D('',#440,#356,#357);
#312=AXIS2_PLACEMENT_3D('',#442,#359,#360);
#313=AXIS2_PLACEMENT_3D('',#448,#364,#365);
#314=AXIS2_PLACEMENT_3D('',#452,#368,#369);
#315=AXIS2_PLACEMENT_3D('',#456,#372,#373);
#316=AXIS2_PLACEMENT_3D('',#458,#375,#376);
#317=AXIS2_PLACEMENT_3D('',#463,#378,#379);
#318=AXIS2_PLACEMENT_3D('',#464,#380,#381);
#319=AXIS2_PLACEMENT_3D('',#467,#383,#384);
#320=AXIS2_PLACEMENT_3D('',#468,#385,#386);
#321=AXIS2_PLACEMENT_3D('',#472,#388,#389);
#322=AXIS2_PLACEMENT_3D('',#474,#391,#392);
#323=AXIS2_PLACEMENT_3D('',#476,#394,#395);
#324=AXIS2_PLACEMENT_3D('',#477,#396,#397);
#325=AXIS2_PLACEMENT_3D('',#480,#398,#399);
#326=AXIS2_PLACEMENT_3D('',#482,#400,#401);
#327=AXIS2_PLACEMENT_3D('',#483,#402,#403);
#328=AXIS2_PLACEMENT_3D('',#484,#404,#405);
#329=DIRECTION('axis',(0.,0.,1.));
#330=DIRECTION('refdir',(1.,0.,0.));
#331=DIRECTION('center_axis',(0.,-1.,0.));
#332=DIRECTION('ref_axis',(0.,0.,-1.));
#333=DIRECTION('',(1.,0.,-5.55111512312578E-16));
#334=DIRECTION('',(2.77555756156289E-16,0.,1.));
#335=DIRECTION('',(-1.,0.,0.));
#336=DIRECTION('',(-2.77555756156289E-16,0.,-1.));
#337=DIRECTION('center_axis',(0.,-1.,0.));
#338=DIRECTION('ref_axis',(0.,0.,-1.));
#339=DIRECTION('',(-1.,0.,-5.55111512312578E-16));
#340=DIRECTION('',(2.77555756156289E-16,0.,-1.));
#341=DIRECTION('',(1.,0.,0.));
#342=DIRECTION('',(-2.77555756156289E-16,0.,1.));
#343=DIRECTION('center_axis',(1.,0.,2.77555756156289E-16));
#344=DIRECTION('ref_axis',(-2.77555756156289E-16,0.,1.));
#345=DIRECTION('',(2.77555756156289E-16,0.,-1.));
#346=DIRECTION('',(0.,-1.,0.));
#347=DIRECTION('',(0.,-1.,0.));
#348=DIRECTION('center_axis',(0.,0.,-1.));
#349=DIRECTION('ref_axis',(1.,0.,0.));
#350=DIRECTION('',(-1.,0.,0.));
#351=DIRECTION('',(0.,-1.,0.));
#352=DIRECTION('center_axis',(-1.,0.,-2.77555756156289E-16));
#353=DIRECTION('ref_axis',(2.77555756156289E-16,0.,-1.));
#354=DIRECTION('',(-2.77555756156289E-16,0.,1.));
#355=DIRECTION('',(0.,-1.,0.));
#356=DIRECTION('center_axis',(-5.55111512312578E-16,0.,1.));
#357=DIRECTION('ref_axis',(-1.,0.,-5.55111512312578E-16));
#358=DIRECTION('',(1.,0.,5.55111512312578E-16));
#359=DIRECTION('center_axis',(-1.,0.,2.77555756156289E-16));
#360=DIRECTION('ref_axis',(-2.77555756156289E-16,0.,-1.));
#361=DIRECTION('',(2.77555756156289E-16,0.,1.));
#362=DIRECTION('',(0.,-1.,0.));
#363=DIRECTION('',(0.,-1.,0.));
#364=DIRECTION('center_axis',(0.,0.,1.));
#365=DIRECTION('ref_axis',(-1.,0.,0.));
#366=DIRECTION('',(1.,0.,0.));
#367=DIRECTION('',(0.,-1.,0.));
#368=DIRECTION('center_axis',(1.,0.,-2.77555756156289E-16));
#369=DIRECTION('ref_axis',(2.77555756156289E-16,0.,1.));
#370=DIRECTION('',(-2.77555756156289E-16,0.,-1.));
#371=DIRECTION('',(0.,-1.,0.));
#372=DIRECTION('center_axis',(-5.55111512312578E-16,0.,-1.));
#373=DIRECTION('ref_axis',(1.,0.,-5.55111512312578E-16));
#374=DIRECTION('',(-1.,0.,5.55111512312578E-16));
#375=DIRECTION('center_axis',(0.,-1.,0.));
#376=DIRECTION('ref_axis',(0.,0.,-1.));
#377=DIRECTION('',(1.,0.,0.));
#378=DIRECTION('center_axis',(0.,-1.,0.));
#379=DIRECTION('ref_axis',(1.,0.,0.));
#380=DIRECTION('center_axis',(0.,-1.,0.));
#381=DIRECTION('ref_axis',(1.,0.,0.));
#382=DIRECTION('',(1.,0.,0.));
#383=DIRECTION('center_axis',(0.,1.,0.));
#384=DIRECTION('ref_axis',(0.552770798392567,0.,-0.833333333333333));
#385=DIRECTION('center_axis',(0.,-1.,0.));
#386=DIRECTION('ref_axis',(0.552770798392567,0.,-0.833333333333333));
#387=DIRECTION('',(0.,-1.,0.));
#388=DIRECTION('center_axis',(0.,-1.,0.));
#389=DIRECTION('ref_axis',(0.552770798392567,0.,-0.833333333333333));
#390=DIRECTION('',(0.,-1.,0.));
#391=DIRECTION('center_axis',(0.,0.,1.));
#392=DIRECTION('ref_axis',(-1.,0.,0.));
#393=DIRECTION('',(-1.,0.,0.));
#394=DIRECTION('center_axis',(0.,-1.,0.));
#395=DIRECTION('ref_axis',(0.,0.,-1.));
#396=DIRECTION('center_axis',(0.,1.,-1.22464679914735E-16));
#397=DIRECTION('ref_axis',(0.,0.,-1.));
#398=DIRECTION('center_axis',(0.,1.,0.));
#399=DIRECTION('ref_axis',(1.,0.,0.));
#400=DIRECTION('center_axis',(1.,-7.49879891330929E-33,-1.22464679914735E-16));
#401=DIRECTION('ref_axis',(1.22464679914735E-16,0.,1.));
#402=DIRECTION('center_axis',(0.,1.,0.));
#403=DIRECTION('ref_axis',(1.,0.,0.));
#404=DIRECTION('center_axis',(0.,1.,0.));
#405=DIRECTION('ref_axis',(1.,0.,0.));
#406=DIRECTION('',(0.,-1.,0.));
#407=CARTESIAN_POINT('',(0.,0.,0.));
#408=CARTESIAN_POINT('Origin',(-1.38777878078145E-16,-9.,-1.27));
#409=CARTESIAN_POINT('',(-0.25,-9.,-1.52));
#410=CARTESIAN_POINT('',(0.25,-9.,-1.52));
#411=CARTESIAN_POINT('',(-0.25,-9.,-1.52));
#412=CARTESIAN_POINT('',(0.25,-9.,-1.02));
#413=CARTESIAN_POINT('',(0.25,-9.,-1.52));
#414=CARTESIAN_POINT('',(-0.25,-9.,-1.02));
#415=CARTESIAN_POINT('',(0.25,-9.,-1.02));
#416=CARTESIAN_POINT('',(-0.25,-9.,-1.02));
#417=CARTESIAN_POINT('Origin',(-1.38777878078145E-16,-9.,1.27));
#418=CARTESIAN_POINT('',(0.25,-9.,1.52));
#419=CARTESIAN_POINT('',(-0.25,-9.,1.52));
#420=CARTESIAN_POINT('',(-0.25,-9.,1.52));
#421=CARTESIAN_POINT('',(-0.25,-9.,1.02));
#422=CARTESIAN_POINT('',(-0.25,-9.,1.02));
#423=CARTESIAN_POINT('',(0.25,-9.,1.02));
#424=CARTESIAN_POINT('',(0.25,-9.,1.02));
#425=CARTESIAN_POINT('',(0.25,-9.,1.52));
#426=CARTESIAN_POINT('Origin',(0.25,-1.,1.02));
#427=CARTESIAN_POINT('',(0.25,-1.,1.52));
#428=CARTESIAN_POINT('',(0.25,-1.,1.02));
#429=CARTESIAN_POINT('',(0.25,-1.,0.537977558992305));
#430=CARTESIAN_POINT('',(0.25,-1.,1.52));
#431=CARTESIAN_POINT('',(0.25,-1.,1.02));
#432=CARTESIAN_POINT('Origin',(-0.25,-1.,1.02));
#433=CARTESIAN_POINT('',(-0.25,-1.,1.02));
#434=CARTESIAN_POINT('',(-0.125,-1.,1.02));
#435=CARTESIAN_POINT('',(-0.25,-1.,1.02));
#436=CARTESIAN_POINT('Origin',(-0.25,-1.,1.52));
#437=CARTESIAN_POINT('',(-0.25,-1.,1.52));
#438=CARTESIAN_POINT('',(-0.25,-1.,0.787977558992305));
#439=CARTESIAN_POINT('',(-0.25,-1.,1.52));
#440=CARTESIAN_POINT('Origin',(0.25,-1.,1.52));
#441=CARTESIAN_POINT('',(0.125,-1.,1.52));
#442=CARTESIAN_POINT('Origin',(-0.25,-1.,-1.02));
#443=CARTESIAN_POINT('',(-0.25,-1.,-1.52));
#444=CARTESIAN_POINT('',(-0.25,-1.,-1.02));
#445=CARTESIAN_POINT('',(-0.25,-1.,-0.482022441007695));
#446=CARTESIAN_POINT('',(-0.25,-1.,-1.52));
#447=CARTESIAN_POINT('',(-0.25,-1.,-1.02));
#448=CARTESIAN_POINT('Origin',(0.25,-1.,-1.02));
#449=CARTESIAN_POINT('',(0.25,-1.,-1.02));
#450=CARTESIAN_POINT('',(0.125,-1.,-1.02));
#451=CARTESIAN_POINT('',(0.25,-1.,-1.02));
#452=CARTESIAN_POINT('Origin',(0.25,-1.,-1.52));
#453=CARTESIAN_POINT('',(0.25,-1.,-1.52));
#454=CARTESIAN_POINT('',(0.25,-1.,-0.732022441007695));
#455=CARTESIAN_POINT('',(0.25,-1.,-1.52));
#456=CARTESIAN_POINT('Origin',(-0.25,-1.,-1.52));
#457=CARTESIAN_POINT('',(-0.125,-1.,-1.52));
#458=CARTESIAN_POINT('Origin',(1.04163336724787E-16,0.,0.0559551179846103));
#459=CARTESIAN_POINT('',(-1.6583123951777,0.,2.5));
#460=CARTESIAN_POINT('',(0.,0.,2.5));
#461=CARTESIAN_POINT('',(-1.6583123951777,0.,2.5));
#462=CARTESIAN_POINT('',(-2.5,0.,3.06161699786838E-16));
#463=CARTESIAN_POINT('Origin',(0.,0.,0.));
#464=CARTESIAN_POINT('Origin',(0.,0.,0.));
#465=CARTESIAN_POINT('',(1.6583123951777,0.,2.5));
#466=CARTESIAN_POINT('',(-1.6583123951777,0.,2.5));
#467=CARTESIAN_POINT('Origin',(0.,0.,0.));
#468=CARTESIAN_POINT('Origin',(0.,0.,0.));
#469=CARTESIAN_POINT('',(1.6583123951777,-1.,2.5));
#470=CARTESIAN_POINT('',(1.6583123951777,0.,2.5));
#471=CARTESIAN_POINT('',(-1.6583123951777,-1.,2.5));
#472=CARTESIAN_POINT('Origin',(0.,-1.,0.));
#473=CARTESIAN_POINT('',(-1.6583123951777,0.,2.5));
#474=CARTESIAN_POINT('Origin',(1.6583123951777,0.,2.5));
#475=CARTESIAN_POINT('',(-1.6583123951777,-1.,2.5));
#476=CARTESIAN_POINT('Origin',(1.04163336724787E-16,-1.,0.0559551179846103));
#477=CARTESIAN_POINT('Origin',(0.,5.5,0.));
#478=CARTESIAN_POINT('',(-2.5,5.5,3.06161699786838E-16));
#479=CARTESIAN_POINT('',(3.06161699786838E-16,5.5,2.5));
#480=CARTESIAN_POINT('Origin',(0.,5.5,0.));
#481=CARTESIAN_POINT('',(3.74939945665465E-32,8.,1.53080849893419E-16));
#482=CARTESIAN_POINT('Origin',(0.,5.5,0.));
#483=CARTESIAN_POINT('Origin',(0.,5.5,0.));
#484=CARTESIAN_POINT('Origin',(0.,0.,0.));
#485=CARTESIAN_POINT('',(-2.5,0.,3.06161699786838E-16));
#486=UNCERTAINTY_MEASURE_WITH_UNIT(LENGTH_MEASURE(0.01),#490,
'DISTANCE_ACCURACY_VALUE',
'Maximum model space distance between geometric entities at asserted c
onnectivities');
#487=UNCERTAINTY_MEASURE_WITH_UNIT(LENGTH_MEASURE(0.01),#490,
'DISTANCE_ACCURACY_VALUE',
'Maximum model space distance between geometric entities at asserted c
onnectivities');
#488=(
GEOMETRIC_REPRESENTATION_CONTEXT(3)
GLOBAL_UNCERTAINTY_ASSIGNED_CONTEXT((#486))
GLOBAL_UNIT_ASSIGNED_CONTEXT((#490,#492,#493))
REPRESENTATION_CONTEXT('','3D')
);
#489=(
GEOMETRIC_REPRESENTATION_CONTEXT(3)
GLOBAL_UNCERTAINTY_ASSIGNED_CONTEXT((#487))
GLOBAL_UNIT_ASSIGNED_CONTEXT((#490,#492,#493))
REPRESENTATION_CONTEXT('','3D')
);
#490=(
LENGTH_UNIT()
NAMED_UNIT(*)
SI_UNIT(.MILLI.,.METRE.)
);
#491=(
LENGTH_UNIT()
NAMED_UNIT(*)
SI_UNIT($,.METRE.)
);
#492=(
NAMED_UNIT(*)
PLANE_ANGLE_UNIT()
SI_UNIT($,.RADIAN.)
);
#493=(
NAMED_UNIT(*)
SI_UNIT($,.STERADIAN.)
SOLID_ANGLE_UNIT()
);
#494=SHAPE_DEFINITION_REPRESENTATION(#495,#496);
#495=PRODUCT_DEFINITION_SHAPE('',$,#498);
#496=SHAPE_REPRESENTATION('',(#305),#488);
#497=PRODUCT_DEFINITION_CONTEXT('part definition',#502,'design');
#498=PRODUCT_DEFINITION('LED_5mm_Rot','LED_Bleu v2',#499,#497);
#499=PRODUCT_DEFINITION_FORMATION('',$,#504);
#500=PRODUCT_RELATED_PRODUCT_CATEGORY('LED_Bleu v2','LED_Bleu v2',(#504));
#501=APPLICATION_PROTOCOL_DEFINITION('international standard',
'automotive_design',2009,#502);
#502=APPLICATION_CONTEXT(
'Core Data for Automotive Mechanical Design Process');
#503=PRODUCT_CONTEXT('part definition',#502,'mechanical');
#504=PRODUCT('LED_5mm_Rot','LED_Bleu v2',$,(#503));
#505=PRESENTATION_STYLE_ASSIGNMENT((#508));
#506=PRESENTATION_STYLE_ASSIGNMENT((#509));
#507=PRESENTATION_STYLE_ASSIGNMENT((#510));
#508=SURFACE_STYLE_USAGE(.BOTH.,#511);
#509=SURFACE_STYLE_USAGE(.BOTH.,#512);
#510=SURFACE_STYLE_USAGE(.BOTH.,#513);
#511=SURFACE_SIDE_STYLE('',(#514));
#512=SURFACE_SIDE_STYLE('',(#515));
#513=SURFACE_SIDE_STYLE('',(#516));
#514=SURFACE_STYLE_FILL_AREA(#517);
#515=SURFACE_STYLE_FILL_AREA(#518);
#516=SURFACE_STYLE_FILL_AREA(#519);
#517=FILL_AREA_STYLE('Acier - Satin\X\E9',(#520));
#518=FILL_AREA_STYLE('Opaque(191,191,191)',(#521));
#519=FILL_AREA_STYLE('LED (bleu)',(#522));
#520=FILL_AREA_STYLE_COLOUR('Acier - Satin\X\E9',#523);
#521=FILL_AREA_STYLE_COLOUR('Opaque(191,191,191)',#524);
#522=FILL_AREA_STYLE_COLOUR('LED (bleu)',#525);
#523=COLOUR_RGB('Acier - Satin\X\E9',0.627450980392157,0.627450980392157,
0.627450980392157);
#524=COLOUR_RGB('Opaque(191,191,191)',0.749019607843137,0.749019607843137,
0.749019607843137);
#525=COLOUR_RGB('LED (bleu)',0.188235294117647,0.231372549019608,0.588235294117647);
ENDSEC;
END-ISO-10303-21;
