(kicad_sch (version 20230121) (generator eeschema)

  (uuid 2e1fb9e2-fd1c-4f54-8c06-d1db76f7b831)

  (paper "A4")

  (title_block
    (title "WP_6000")
    (date "2023-05-23")
    (rev "Théo Parrinello")
    (company "Arts & Métiers")
    (comment 1 "Rebus")
  )

  (lib_symbols
    (symbol "Adafruit_Motor_Shield_V2:Grove_-_Solid_State_Relay_V2" (in_bom yes) (on_board yes)
      (property "Reference" "K1" (at -0.6096 8.0264 0)
        (effects (font (size 1.27 1.27)) (justify left))
      )
      (property "Value" "Grove_-_Solid_State_Relay_V2" (at -9.9568 1.3716 0)
        (effects (font (size 1.27 1.27)) (justify left))
      )
      (property "Footprint" "" (at -2.413 12.827 90)
        (effects (font (size 1.27 1.27)) hide)
      )
      (property "Datasheet" "" (at -2.413 12.827 90)
        (effects (font (size 1.27 1.27)) hide)
      )
      (symbol "Grove_-_Solid_State_Relay_V2_0_1"
        (rectangle (start -21.844 9.0932) (end -10.414 -2.3368)
          (stroke (width 0) (type default))
          (fill (type none))
        )
        (rectangle (start -21.844 14.986) (end 22.86 -9.1948)
          (stroke (width 0) (type default))
          (fill (type background))
        )
        (rectangle (start 10.0584 14.986) (end 17.6784 8.636)
          (stroke (width 0) (type default))
          (fill (type none))
        )
      )
      (symbol "Grove_-_Solid_State_Relay_V2_1_1"
        (rectangle (start -6.4008 -2.2352) (end 19.4056 -7.0612)
          (stroke (width 0) (type default) (color 0 0 0 1))
          (fill (type color) (color 0 0 0 0.68))
        )
        (text "High Voltage" (at 14.0208 6.096 0)
          (effects (font (size 1.27 1.27)))
        )
        (pin input line (at 12.5984 14.986 270) (length 1.5)
          (name "LOAD+" (effects (font (size 0.7 0.7))))
          (number "" (effects (font (size 1.27 1.27))))
        )
        (pin input line (at 15.1384 14.986 270) (length 1.5)
          (name "LOAD-" (effects (font (size 0.7 0.7))))
          (number "" (effects (font (size 1.27 1.27))))
        )
        (pin input line (at -21.844 6.5532 0) (length 4)
          (name "GND" (effects (font (size 1.27 1.27))))
          (number "1" (effects (font (size 1.27 1.27))))
        )
        (pin input line (at -21.844 4.0132 0) (length 4)
          (name "VCC" (effects (font (size 1.27 1.27))))
          (number "2" (effects (font (size 1.27 1.27))))
        )
        (pin input line (at -21.844 1.4732 0) (length 4)
          (name "NC" (effects (font (size 1.27 1.27))))
          (number "3" (effects (font (size 1.27 1.27))))
        )
        (pin input line (at -21.844 -1.0668 0) (length 4)
          (name "CTR" (effects (font (size 1.27 1.27))))
          (number "4" (effects (font (size 1.27 1.27))))
        )
      )
    )
    (symbol "Adafruit_Motor_Shield_V2:Résistance_Chauffante" (in_bom yes) (on_board yes)
      (property "Reference" "RP06-2/10-24" (at 0 8.636 0)
        (effects (font (size 1.27 1.27)))
      )
      (property "Value" "Résistance_Chauffante" (at 0 12.065 0)
        (effects (font (size 1.27 1.27)))
      )
      (property "Footprint" "" (at -7.112 2.413 0)
        (effects (font (size 1.27 1.27)) hide)
      )
      (property "Datasheet" "" (at -7.112 2.413 0)
        (effects (font (size 1.27 1.27)) hide)
      )
      (symbol "Résistance_Chauffante_0_0"
        (text "R" (at 0.635 1.143 0)
          (effects (font (size 5 5)))
        )
      )
      (symbol "Résistance_Chauffante_0_1"
        (rectangle (start -23.622 4.953) (end -15.875 -2.667)
          (stroke (width 0) (type default))
          (fill (type background))
        )
        (circle (center -22.225 -0.508) (radius 1.27)
          (stroke (width 0) (type default))
          (fill (type none))
        )
        (circle (center -22.225 2.413) (radius 1.27)
          (stroke (width 0) (type default))
          (fill (type none))
        )
        (rectangle (start -15.875 7.112) (end 18.034 -5.334)
          (stroke (width 0) (type default))
          (fill (type none))
        )
        (rectangle (start -15.875 10.287) (end 18.034 -8.636)
          (stroke (width 0) (type default))
          (fill (type background))
        )
      )
      (symbol "Résistance_Chauffante_1_1"
        (pin passive line (at -22.225 2.413 0) (length 4)
          (name "+" (effects (font (size 1.27 1.27))))
          (number "1" (effects (font (size 1 1))))
        )
        (pin passive line (at -22.225 -0.508 0) (length 4)
          (name "-" (effects (font (size 1.27 1.27))))
          (number "2" (effects (font (size 1 1))))
        )
      )
    )
    (symbol "Adafruit_Motor_Shield_V2:_AC{slash}DC_Power_Supply_40W_7.5_VDC_5.34A" (in_bom yes) (on_board yes)
      (property "Reference" "U?" (at 0 12.7 0)
        (effects (font (size 1.27 1.27)))
      )
      (property "Value" "_AC/DC_Power_Supply_40W_7.5_VDC_5.34A" (at 0 14.986 0)
        (effects (font (size 1.27 1.27)))
      )
      (property "Footprint" "" (at -18.034 -3.683 0)
        (effects (font (size 1.27 1.27)) hide)
      )
      (property "Datasheet" "" (at -18.034 -3.683 0)
        (effects (font (size 1.27 1.27)) hide)
      )
      (symbol "_AC{slash}DC_Power_Supply_40W_7.5_VDC_5.34A_0_0"
        (rectangle (start -26.924 11.176) (end 27.178 -16.383)
          (stroke (width 0) (type default))
          (fill (type background))
        )
        (arc (start -7.746 -10.416) (mid -7.4635 -11.351) (end -6.603 -11.813)
          (stroke (width 0) (type default))
          (fill (type none))
        )
        (arc (start -6.604 -9.271) (mid -7.4648 -9.7328) (end -7.747 -10.668)
          (stroke (width 0) (type default))
          (fill (type none))
        )
        (polyline
          (pts
            (xy 9.906 -3.048)
            (xy 11.938 -3.048)
          )
          (stroke (width 0) (type default))
          (fill (type none))
        )
        (polyline
          (pts
            (xy 11.049 -3.048)
            (xy 11.049 -7.366)
          )
          (stroke (width 0) (type default))
          (fill (type none))
        )
        (polyline
          (pts
            (xy 12.446 -10.033)
            (xy 9.652 -10.033)
          )
          (stroke (width 0) (type default))
          (fill (type none))
        )
        (polyline
          (pts
            (xy 12.446 -8.89)
            (xy 9.652 -8.89)
          )
          (stroke (width 0) (type default))
          (fill (type none))
        )
        (polyline
          (pts
            (xy 19.177 -3.048)
            (xy 26.035 -3.048)
          )
          (stroke (width 0) (type default))
          (fill (type none))
        )
        (polyline
          (pts
            (xy 19.939 -10.541)
            (xy 21.209 -10.541)
          )
          (stroke (width 0) (type default))
          (fill (type none))
        )
        (polyline
          (pts
            (xy 20.574 -13.081)
            (xy 20.574 -14.859)
          )
          (stroke (width 0) (type default))
          (fill (type none))
        )
        (polyline
          (pts
            (xy 21.463 -9.779)
            (xy 21.717 -10.16)
          )
          (stroke (width 0) (type default))
          (fill (type none))
        )
        (polyline
          (pts
            (xy 21.971 -9.525)
            (xy 22.225 -9.906)
          )
          (stroke (width 0) (type default))
          (fill (type none))
        )
        (polyline
          (pts
            (xy 25.146 -12.319)
            (xy 25.146 -14.859)
          )
          (stroke (width 0) (type default))
          (fill (type none))
        )
        (polyline
          (pts
            (xy 25.146 -3.048)
            (xy 25.146 -7.747)
          )
          (stroke (width 0) (type default))
          (fill (type none))
        )
        (polyline
          (pts
            (xy 26.543 -9.906)
            (xy 23.749 -9.906)
          )
          (stroke (width 0) (type default))
          (fill (type none))
        )
        (polyline
          (pts
            (xy 26.543 -8.763)
            (xy 23.749 -8.763)
          )
          (stroke (width 0) (type default))
          (fill (type none))
        )
        (polyline
          (pts
            (xy -8.382 -3.048)
            (xy -8.382 -10.668)
            (xy 2.286 -10.668)
          )
          (stroke (width 0) (type default))
          (fill (type none))
        )
        (polyline
          (pts
            (xy -6.604 -11.811)
            (xy -6.604 -14.859)
            (xy 12.7 -14.859)
          )
          (stroke (width 0) (type default))
          (fill (type none))
        )
        (polyline
          (pts
            (xy -5.334 -3.048)
            (xy -6.604 -3.048)
            (xy -6.604 -9.271)
          )
          (stroke (width 0) (type default))
          (fill (type none))
        )
        (polyline
          (pts
            (xy 19.939 -9.652)
            (xy 21.209 -9.652)
            (xy 20.574 -10.541)
            (xy 19.939 -9.652)
          )
          (stroke (width 0) (type default))
          (fill (type none))
        )
        (polyline
          (pts
            (xy 21.59 -10.287)
            (xy 21.844 -10.16)
            (xy 21.844 -10.541)
            (xy 21.59 -10.414)
            (xy 21.59 -10.287)
          )
          (stroke (width 0) (type default))
          (fill (type none))
        )
        (polyline
          (pts
            (xy 22.098 -10.033)
            (xy 22.352 -9.906)
            (xy 22.352 -10.287)
            (xy 22.098 -10.16)
            (xy 22.098 -10.033)
          )
          (stroke (width 0) (type default))
          (fill (type none))
        )
        (polyline
          (pts
            (xy 20.574 -7.62)
            (xy 21.463 -8.001)
            (xy 19.812 -8.255)
            (xy 21.463 -8.763)
            (xy 20.066 -9.144)
            (xy 20.574 -9.525)
            (xy 20.574 -9.652)
          )
          (stroke (width 0) (type default))
          (fill (type none))
        )
        (rectangle (start 12.446 -1.143) (end 18.796 -5.08)
          (stroke (width 0) (type default))
          (fill (type none))
        )
        (text "D1" (at 6.731 0.889 0)
          (effects (font (size 1 1)))
        )
        (text "D2" (at -2.032 -6.604 0)
          (effects (font (size 1 1)))
        )
        (text "D2" (at -2.032 1.143 0)
          (effects (font (size 1 1)))
        )
        (text "D3" (at 6.477 -6.985 0)
          (effects (font (size 1 1)))
        )
        (text "IC2" (at 15.621 0 0)
          (effects (font (size 1.27 1.27)))
        )
        (text "LED" (at 22.098 -11.43 0)
          (effects (font (size 0.8 0.8)))
        )
      )
      (symbol "_AC{slash}DC_Power_Supply_40W_7.5_VDC_5.34A_0_1"
        (arc (start -21.082 -3.0226) (mid -20.1981 -2.6543) (end -19.812 -1.778)
          (stroke (width 0) (type default))
          (fill (type none))
        )
        (arc (start -21.082 -0.4826) (mid -20.1981 -0.1143) (end -19.812 0.762)
          (stroke (width 0) (type default))
          (fill (type none))
        )
        (arc (start -21.082 2.0574) (mid -20.1981 2.4257) (end -19.812 3.302)
          (stroke (width 0) (type default))
          (fill (type none))
        )
        (arc (start -21.082 4.5974) (mid -20.1981 4.9657) (end -19.812 5.842)
          (stroke (width 0) (type default))
          (fill (type none))
        )
        (arc (start -19.812 -1.778) (mid -20.184 -0.88) (end -21.082 -0.508)
          (stroke (width 0) (type default))
          (fill (type none))
        )
        (arc (start -19.812 0.762) (mid -20.184 1.66) (end -21.082 2.032)
          (stroke (width 0) (type default))
          (fill (type none))
        )
        (arc (start -19.812 3.302) (mid -20.184 4.2) (end -21.082 4.572)
          (stroke (width 0) (type default))
          (fill (type none))
        )
        (arc (start -19.812 5.842) (mid -20.184 6.74) (end -21.082 7.112)
          (stroke (width 0) (type default))
          (fill (type none))
        )
        (arc (start -17.2466 0.762) (mid -16.8821 -0.1181) (end -16.002 -0.4826)
          (stroke (width 0) (type default))
          (fill (type none))
        )
        (arc (start -17.2466 3.302) (mid -16.8821 2.4219) (end -16.002 2.0574)
          (stroke (width 0) (type default))
          (fill (type none))
        )
        (arc (start -17.2466 5.842) (mid -16.8821 4.9619) (end -16.002 4.5974)
          (stroke (width 0) (type default))
          (fill (type none))
        )
        (arc (start -17.2212 -1.778) (mid -16.8565 -2.6579) (end -15.9766 -3.0226)
          (stroke (width 0) (type default))
          (fill (type none))
        )
        (arc (start -16.002 2.032) (mid -16.8962 1.6635) (end -17.2466 0.762)
          (stroke (width 0) (type default))
          (fill (type none))
        )
        (arc (start -16.002 4.572) (mid -16.8962 4.2035) (end -17.2466 3.302)
          (stroke (width 0) (type default))
          (fill (type none))
        )
        (arc (start -16.002 7.112) (mid -16.8962 6.7435) (end -17.2466 5.842)
          (stroke (width 0) (type default))
          (fill (type none))
        )
        (arc (start -15.9766 -0.508) (mid -16.8711 -0.8763) (end -17.2212 -1.778)
          (stroke (width 0) (type default))
          (fill (type none))
        )
        (polyline
          (pts
            (xy -19.177 7.112)
            (xy -19.177 -3.048)
          )
          (stroke (width 0) (type default))
          (fill (type none))
        )
        (polyline
          (pts
            (xy -17.907 -3.048)
            (xy -17.907 7.112)
          )
          (stroke (width 0) (type default))
          (fill (type none))
        )
        (polyline
          (pts
            (xy 1.016 -5.588)
            (xy -0.254 -6.858)
          )
          (stroke (width 0) (type default))
          (fill (type none))
        )
        (polyline
          (pts
            (xy 1.016 -0.508)
            (xy -0.254 0.762)
          )
          (stroke (width 0) (type default))
          (fill (type none))
        )
        (polyline
          (pts
            (xy 4.826 -4.318)
            (xy 6.096 -5.588)
          )
          (stroke (width 0) (type default))
          (fill (type none))
        )
        (polyline
          (pts
            (xy 4.826 -1.778)
            (xy 6.096 -0.508)
          )
          (stroke (width 0) (type default))
          (fill (type none))
        )
        (polyline
          (pts
            (xy 11.049 -14.859)
            (xy 11.049 -10.922)
          )
          (stroke (width 0) (type default))
          (fill (type none))
        )
        (polyline
          (pts
            (xy 12.319 -14.859)
            (xy 25.908 -14.859)
          )
          (stroke (width 0) (type default))
          (fill (type none))
        )
        (polyline
          (pts
            (xy 15.748 -7.112)
            (xy 15.748 -14.859)
          )
          (stroke (width 0) (type default))
          (fill (type none))
        )
        (polyline
          (pts
            (xy 20.574 -3.048)
            (xy 20.574 -5.207)
          )
          (stroke (width 0) (type default))
          (fill (type none))
        )
        (polyline
          (pts
            (xy 2.286 4.572)
            (xy 2.286 7.112)
            (xy -8.382 7.112)
          )
          (stroke (width 0) (type default))
          (fill (type none))
        )
        (polyline
          (pts
            (xy -0.254 -4.318)
            (xy -1.524 -5.588)
            (xy 0.381 -6.223)
            (xy -0.254 -4.318)
          )
          (stroke (width 0) (type default))
          (fill (type none))
        )
        (polyline
          (pts
            (xy -0.254 -1.778)
            (xy -1.524 -0.508)
            (xy 0.381 0.127)
            (xy -0.254 -1.778)
          )
          (stroke (width 0) (type default))
          (fill (type none))
        )
        (polyline
          (pts
            (xy 3.556 -5.588)
            (xy 4.826 -6.858)
            (xy 5.461 -4.953)
            (xy 3.556 -5.588)
          )
          (stroke (width 0) (type default))
          (fill (type none))
        )
        (polyline
          (pts
            (xy 5.461 -1.143)
            (xy 3.556 -0.508)
            (xy 4.826 0.762)
            (xy 5.461 -1.143)
          )
          (stroke (width 0) (type default))
          (fill (type none))
        )
        (polyline
          (pts
            (xy 2.286 -8.128)
            (xy 7.366 -3.048)
            (xy 2.286 2.032)
            (xy -2.794 -3.048)
            (xy 2.286 -8.128)
          )
          (stroke (width 0) (type default))
          (fill (type none))
        )
      )
      (symbol "_AC{slash}DC_Power_Supply_40W_7.5_VDC_5.34A_1_1"
        (pin passive line (at 2.286 -10.668 90) (length 2.54)
          (name "" (effects (font (size 1.27 1.27))))
          (number "" (effects (font (size 1.27 1.27))))
        )
        (pin passive line (at 2.286 4.572 270) (length 2.54)
          (name "" (effects (font (size 1.27 1.27))))
          (number "" (effects (font (size 1.27 1.27))))
        )
        (pin passive line (at 9.906 -3.048 180) (length 2.54)
          (name "" (effects (font (size 1.27 1.27))))
          (number "" (effects (font (size 1.27 1.27))))
        )
        (pin passive line (at 15.748 -5.08 270) (length 2.54)
          (name "" (effects (font (size 1.27 1.27))))
          (number "" (effects (font (size 1.27 1.27))))
        )
        (pin passive line (at 18.796 -3.048 0) (length 2.54)
          (name "" (effects (font (size 1.27 1.27))))
          (number "" (effects (font (size 1.27 1.27))))
        )
        (pin passive line (at 20.574 -10.541 270) (length 2.54)
          (name "" (effects (font (size 1.27 1.27))))
          (number "" (effects (font (size 1.27 1.27))))
        )
        (pin passive line (at 20.574 -7.62 90) (length 2.54)
          (name "" (effects (font (size 1.27 1.27))))
          (number "" (effects (font (size 1.27 1.27))))
        )
        (pin passive line (at 25.146 -12.446 90) (length 2.54)
          (name "" (effects (font (size 1.27 1.27))))
          (number "" (effects (font (size 1.27 1.27))))
        )
        (pin passive line (at 25.146 -6.223 270) (length 2.54)
          (name "" (effects (font (size 1.27 1.27))))
          (number "" (effects (font (size 1.27 1.27))))
        )
        (pin passive line (at 27.94 -3.048 180) (length 2.54)
          (name "+" (effects (font (size 1.27 1.27))))
          (number "" (effects (font (size 1.27 1.27))))
        )
        (pin passive line (at 27.813 -14.859 180) (length 2.54)
          (name "-" (effects (font (size 1.27 1.27))))
          (number "" (effects (font (size 1.27 1.27))))
        )
        (pin passive line (at 11.303 -3.048 0) (length 1)
          (name "7812" (effects (font (size 1.27 1.27))))
          (number "" (effects (font (size 1.27 1.27))))
        )
        (pin passive line (at -5.334 -3.048 0) (length 2.54)
          (name "~" (effects (font (size 1.27 1.27))))
          (number "" (effects (font (size 1.27 1.27))))
        )
        (pin passive line (at 11.049 -6.35 270) (length 2.54)
          (name "" (effects (font (size 1.27 1.27))))
          (number "+" (effects (font (size 1.27 1.27))))
        )
        (pin passive line (at 11.049 -12.573 90) (length 2.54)
          (name "" (effects (font (size 1.27 1.27))))
          (number "-" (effects (font (size 1.27 1.27))))
        )
        (pin passive line (at -28.702 7.112 0) (length 7.62)
          (name "AA" (effects (font (size 1.27 1.27))))
          (number "1" (effects (font (size 1.27 1.27))))
        )
        (pin passive line (at -28.702 -3.048 0) (length 7.62)
          (name "AB" (effects (font (size 1.27 1.27))))
          (number "2" (effects (font (size 1.27 1.27))))
        )
        (pin passive line (at -8.382 -3.048 180) (length 7.62)
          (name "SA" (effects (font (size 1.27 1.27))))
          (number "3" (effects (font (size 1.27 1.27))))
        )
        (pin passive line (at -8.382 7.112 180) (length 7.62)
          (name "SB" (effects (font (size 1.27 1.27))))
          (number "4" (effects (font (size 1.27 1.27))))
        )
      )
    )
    (symbol "Adafruit_Motor_Shield_V2:i2c_2x16" (in_bom yes) (on_board yes)
      (property "Reference" "LCD" (at -16.129 10.414 0)
        (effects (font (size 1.27 1.27)))
      )
      (property "Value" "i2c_2x16" (at 0 9.144 0)
        (effects (font (size 1.27 1.27)))
      )
      (property "Footprint" "" (at 0 0 0)
        (effects (font (size 1.27 1.27)) hide)
      )
      (property "Datasheet" "" (at 0 0 0)
        (effects (font (size 1.27 1.27)) hide)
      )
      (symbol "i2c_2x16_0_0"
        (text "AFFICHEUR LCD" (at -6.096 4.318 0)
          (effects (font (size 1.5 1.5)))
        )
        (text "I2C" (at -13.208 1.905 0)
          (effects (font (size 1.27 1.27)))
        )
        (text "LM016L" (at -15.367 8.763 0)
          (effects (font (size 0.9 0.9)))
        )
      )
      (symbol "i2c_2x16_0_1"
        (rectangle (start -17.78 8.001) (end 20.193 -7.62)
          (stroke (width 0) (type default))
          (fill (type background))
        )
        (rectangle (start -15.494 6.477) (end 17.653 0)
          (stroke (width 0.1) (type default))
          (fill (type none))
        )
      )
      (symbol "i2c_2x16_1_1"
        (pin input line (at -14.351 -7.62 90) (length 2.54)
          (name "GND" (effects (font (size 1 1))))
          (number "" (effects (font (size 1 1))))
        )
        (pin input line (at -7.874 -7.62 90) (length 2.54)
          (name "SCL" (effects (font (size 1 1))))
          (number "" (effects (font (size 1 1))))
        )
        (pin input line (at -9.906 -7.62 90) (length 2.54)
          (name "SDA" (effects (font (size 1 1))))
          (number "" (effects (font (size 1 1))))
        )
        (pin input line (at -12.065 -7.62 90) (length 2.54)
          (name "VCC" (effects (font (size 1 1))))
          (number "" (effects (font (size 1 1))))
        )
      )
    )
    (symbol "Device:R_Potentiometer" (pin_names (offset 1.016) hide) (in_bom yes) (on_board yes)
      (property "Reference" "RV" (at -4.445 0 90)
        (effects (font (size 1.27 1.27)))
      )
      (property "Value" "R_Potentiometer" (at -2.54 0 90)
        (effects (font (size 1.27 1.27)))
      )
      (property "Footprint" "" (at 0 0 0)
        (effects (font (size 1.27 1.27)) hide)
      )
      (property "Datasheet" "~" (at 0 0 0)
        (effects (font (size 1.27 1.27)) hide)
      )
      (property "ki_keywords" "resistor variable" (at 0 0 0)
        (effects (font (size 1.27 1.27)) hide)
      )
      (property "ki_description" "Potentiometer" (at 0 0 0)
        (effects (font (size 1.27 1.27)) hide)
      )
      (property "ki_fp_filters" "Potentiometer*" (at 0 0 0)
        (effects (font (size 1.27 1.27)) hide)
      )
      (symbol "R_Potentiometer_0_1"
        (polyline
          (pts
            (xy 2.54 0)
            (xy 1.524 0)
          )
          (stroke (width 0) (type default))
          (fill (type none))
        )
        (polyline
          (pts
            (xy 1.143 0)
            (xy 2.286 0.508)
            (xy 2.286 -0.508)
            (xy 1.143 0)
          )
          (stroke (width 0) (type default))
          (fill (type outline))
        )
        (rectangle (start 1.016 2.54) (end -1.016 -2.54)
          (stroke (width 0.254) (type default))
          (fill (type none))
        )
      )
      (symbol "R_Potentiometer_1_1"
        (pin passive line (at 0 3.81 270) (length 1.27)
          (name "1" (effects (font (size 1.27 1.27))))
          (number "1" (effects (font (size 1.27 1.27))))
        )
        (pin passive line (at 3.81 0 180) (length 1.27)
          (name "2" (effects (font (size 1.27 1.27))))
          (number "2" (effects (font (size 1.27 1.27))))
        )
        (pin passive line (at 0 -3.81 90) (length 1.27)
          (name "3" (effects (font (size 1.27 1.27))))
          (number "3" (effects (font (size 1.27 1.27))))
        )
      )
    )
    (symbol "MCU_Module_arduino_R3_P1:Arduino_Uno_R3" (pin_numbers hide) (in_bom yes) (on_board yes)
      (property "Reference" "A?" (at -3.81 -39.37 0)
        (effects (font (size 1.27 1.27)) (justify left) hide)
      )
      (property "Value" "Arduino_Uno_R3" (at 2.54 -36.83 0)
        (effects (font (size 1.27 1.27)) (justify left) hide)
      )
      (property "Footprint" "Module:Arduino_Uno_R3" (at -5.08 -43.18 0)
        (effects (font (size 1.27 1.27) italic) hide)
      )
      (property "Datasheet" "https://www.arduino.cc/" (at -3.81 -55.88 0)
        (effects (font (size 1.016 1.016)) hide)
      )
      (property "ki_keywords" "Arduino UNO R3 Microcontroller Module Atmel AVR USB" (at 0 0 0)
        (effects (font (size 1.27 1.27)) hide)
      )
      (property "ki_description" "Arduino UNO Microcontroller Module, release 3" (at 0 0 0)
        (effects (font (size 1.27 1.27)) hide)
      )
      (property "ki_fp_filters" "Arduino*UNO*R3*" (at 0 0 0)
        (effects (font (size 1.27 1.27)) hide)
      )
      (symbol "Arduino_Uno_R3_0_1"
        (rectangle (start -22.86 20.32) (end -19.05 2.54)
          (stroke (width 0) (type default))
          (fill (type none))
        )
        (circle (center -20.32 5.08) (radius 1.27)
          (stroke (width 0) (type default))
          (fill (type none))
        )
        (circle (center -20.32 7.62) (radius 1.27)
          (stroke (width 0) (type default))
          (fill (type none))
        )
        (circle (center -20.32 10.16) (radius 1.27)
          (stroke (width 0) (type default))
          (fill (type none))
        )
        (circle (center -20.32 12.7) (radius 1.27)
          (stroke (width 0) (type default))
          (fill (type none))
        )
        (circle (center -20.32 15.24) (radius 1.27)
          (stroke (width 0) (type default))
          (fill (type none))
        )
        (circle (center -20.32 17.78) (radius 1.27)
          (stroke (width 0) (type default))
          (fill (type none))
        )
        (circle (center -20.32 24.13) (radius 1.27)
          (stroke (width 0) (type default))
          (fill (type none))
        )
        (circle (center -20.32 26.67) (radius 1.27)
          (stroke (width 0) (type default))
          (fill (type none))
        )
        (circle (center -20.32 29.21) (radius 1.27)
          (stroke (width 0) (type default))
          (fill (type none))
        )
        (circle (center -20.32 31.75) (radius 1.27)
          (stroke (width 0) (type default))
          (fill (type none))
        )
        (circle (center -20.32 34.29) (radius 1.27)
          (stroke (width 0) (type default))
          (fill (type none))
        )
        (circle (center -20.32 36.83) (radius 1.27)
          (stroke (width 0) (type default))
          (fill (type none))
        )
        (circle (center -20.32 39.37) (radius 1.27)
          (stroke (width 0) (type default))
          (fill (type none))
        )
        (rectangle (start -19.05 21.59) (end -22.86 41.91)
          (stroke (width 0) (type default))
          (fill (type none))
        )
        (rectangle (start -17.78 71.12) (end -10.16 59.69)
          (stroke (width 0) (type default))
          (fill (type background))
        )
        (polyline
          (pts
            (xy 30.48 68.58)
            (xy 21.59 68.58)
            (xy 21.59 60.96)
            (xy 8.89 60.96)
            (xy 8.89 68.58)
            (xy -10.16 68.58)
            (xy -10.16 59.69)
            (xy -17.78 59.69)
            (xy -17.78 68.58)
            (xy -22.86 68.58)
            (xy -22.86 2.54)
            (xy -19.05 2.54)
            (xy -16.51 0)
            (xy 15.24 0)
            (xy 17.78 2.54)
            (xy 30.48 2.54)
            (xy 30.48 68.58)
            (xy 30.48 30.48)
          )
          (stroke (width 0) (type default))
          (fill (type background))
        )
        (rectangle (start 8.89 74.93) (end 21.59 60.96)
          (stroke (width 0) (type default))
          (fill (type background))
        )
        (rectangle (start 26.67 25.4) (end 30.48 2.54)
          (stroke (width 0) (type default))
          (fill (type none))
        )
        (rectangle (start 26.67 53.34) (end 30.48 25.4)
          (stroke (width 0) (type default))
          (fill (type none))
        )
        (circle (center 27.94 5.08) (radius 1.27)
          (stroke (width 0) (type default))
          (fill (type none))
        )
        (circle (center 27.94 7.62) (radius 1.27)
          (stroke (width 0) (type default))
          (fill (type none))
        )
        (circle (center 27.94 10.16) (radius 1.27)
          (stroke (width 0) (type default))
          (fill (type none))
        )
        (circle (center 27.94 12.7) (radius 1.27)
          (stroke (width 0) (type default))
          (fill (type none))
        )
        (circle (center 27.94 15.24) (radius 1.27)
          (stroke (width 0) (type default))
          (fill (type none))
        )
        (circle (center 27.94 17.78) (radius 1.27)
          (stroke (width 0) (type default))
          (fill (type none))
        )
        (circle (center 27.94 20.32) (radius 1.27)
          (stroke (width 0) (type default))
          (fill (type none))
        )
        (circle (center 27.94 22.86) (radius 1.27)
          (stroke (width 0) (type default))
          (fill (type none))
        )
        (circle (center 27.94 27.94) (radius 1.27)
          (stroke (width 0) (type default))
          (fill (type none))
        )
        (circle (center 27.94 30.48) (radius 1.27)
          (stroke (width 0) (type default))
          (fill (type none))
        )
        (circle (center 27.94 33.02) (radius 1.27)
          (stroke (width 0) (type default))
          (fill (type none))
        )
        (circle (center 27.94 35.56) (radius 1.27)
          (stroke (width 0) (type default))
          (fill (type none))
        )
        (circle (center 27.94 38.1) (radius 1.27)
          (stroke (width 0) (type default))
          (fill (type none))
        )
        (circle (center 27.94 40.64) (radius 1.27)
          (stroke (width 0) (type default))
          (fill (type none))
        )
        (circle (center 27.94 43.18) (radius 1.27)
          (stroke (width 0) (type default))
          (fill (type none))
        )
        (circle (center 27.94 45.72) (radius 1.27)
          (stroke (width 0) (type default))
          (fill (type none))
        )
        (circle (center 27.94 48.26) (radius 1.27)
          (stroke (width 0) (type default))
          (fill (type none))
        )
        (circle (center 27.94 50.8) (radius 1.27)
          (stroke (width 0) (type default))
          (fill (type none))
        )
      )
      (symbol "Arduino_Uno_R3_1_1"
        (pin power_in line (at -11.811 71.12 270) (length 2.54)
          (name "+" (effects (font (size 3 3))))
          (number "" (effects (font (size 2 2))))
        )
        (pin power_in line (at -16.256 71.12 270) (length 2.54)
          (name "-" (effects (font (size 3 3))))
          (number "" (effects (font (size 2 2))))
        )
        (pin bidirectional line (at 15.24 74.93 270) (length 2.54)
          (name "USB" (effects (font (size 3 3))))
          (number "" (effects (font (size 2 2))))
        )
        (pin bidirectional line (at 27.94 48.26 180) (length 2.54)
          (name "SDA" (effects (font (size 1.27 1.27))))
          (number "1" (effects (font (size 1.27 1.27))))
        )
        (pin bidirectional line (at -20.32 15.24 0) (length 2.54)
          (name "A1" (effects (font (size 1.27 1.27))))
          (number "10" (effects (font (size 1.27 1.27))))
        )
        (pin bidirectional line (at -20.32 12.7 0) (length 2.54)
          (name "A2" (effects (font (size 1.27 1.27))))
          (number "11" (effects (font (size 1.27 1.27))))
        )
        (pin bidirectional line (at -20.32 10.16 0) (length 2.54)
          (name "A3" (effects (font (size 1.27 1.27))))
          (number "12" (effects (font (size 1.27 1.27))))
        )
        (pin bidirectional line (at -20.32 7.62 0) (length 2.54)
          (name "A4" (effects (font (size 1.27 1.27))))
          (number "13" (effects (font (size 1.27 1.27))))
        )
        (pin bidirectional line (at -20.32 5.08 0) (length 2.54)
          (name "A5" (effects (font (size 1.27 1.27))))
          (number "14" (effects (font (size 1.27 1.27))))
        )
        (pin bidirectional line (at 27.94 5.08 180) (length 2.54)
          (name "D0/RX" (effects (font (size 1.27 1.27))))
          (number "15" (effects (font (size 1.27 1.27))))
        )
        (pin bidirectional line (at 27.94 7.62 180) (length 2.54)
          (name "D1/TX" (effects (font (size 1.27 1.27))))
          (number "16" (effects (font (size 1.27 1.27))))
        )
        (pin bidirectional line (at 27.94 10.16 180) (length 2.54)
          (name "D2" (effects (font (size 1.27 1.27))))
          (number "17" (effects (font (size 1.27 1.27))))
        )
        (pin bidirectional line (at 27.94 12.7 180) (length 2.54)
          (name "D3" (effects (font (size 1.27 1.27))))
          (number "18" (effects (font (size 1.27 1.27))))
        )
        (pin bidirectional line (at 27.94 15.24 180) (length 2.54)
          (name "D4" (effects (font (size 1.27 1.27))))
          (number "19" (effects (font (size 1.27 1.27))))
        )
        (pin output line (at -20.32 36.83 0) (length 2.54)
          (name "IOREF" (effects (font (size 1.27 1.27))))
          (number "2" (effects (font (size 1.27 1.27))))
        )
        (pin bidirectional line (at 27.94 17.78 180) (length 2.54)
          (name "D5" (effects (font (size 1.27 1.27))))
          (number "20" (effects (font (size 1.27 1.27))))
        )
        (pin bidirectional line (at 27.94 20.32 180) (length 2.54)
          (name "D6" (effects (font (size 1.27 1.27))))
          (number "21" (effects (font (size 1.27 1.27))))
        )
        (pin bidirectional line (at 27.94 22.86 180) (length 2.54)
          (name "D7" (effects (font (size 1.27 1.27))))
          (number "22" (effects (font (size 1.27 1.27))))
        )
        (pin bidirectional line (at 27.94 27.94 180) (length 2.54)
          (name "D8" (effects (font (size 1.27 1.27))))
          (number "23" (effects (font (size 1.27 1.27))))
        )
        (pin bidirectional line (at 27.94 30.48 180) (length 2.54)
          (name "D9" (effects (font (size 1.27 1.27))))
          (number "24" (effects (font (size 1.27 1.27))))
        )
        (pin bidirectional line (at 27.94 33.02 180) (length 2.54)
          (name "D10" (effects (font (size 1.27 1.27))))
          (number "25" (effects (font (size 1.27 1.27))))
        )
        (pin bidirectional line (at 27.94 35.56 180) (length 2.54)
          (name "D11" (effects (font (size 1.27 1.27))))
          (number "26" (effects (font (size 1.27 1.27))))
        )
        (pin bidirectional line (at 27.94 38.1 180) (length 2.54)
          (name "D12" (effects (font (size 1.27 1.27))))
          (number "27" (effects (font (size 1.27 1.27))))
        )
        (pin bidirectional line (at 27.94 40.64 180) (length 2.54)
          (name "D13" (effects (font (size 1.27 1.27))))
          (number "28" (effects (font (size 1.27 1.27))))
        )
        (pin power_in line (at -20.32 26.67 0) (length 2.54)
          (name "GND" (effects (font (size 1.27 1.27))))
          (number "29" (effects (font (size 1.27 1.27))))
        )
        (pin power_in line (at -20.32 29.21 0) (length 2.54)
          (name "GND" (effects (font (size 1.27 1.27))))
          (number "29" (effects (font (size 1.27 1.27))))
        )
        (pin power_in line (at 27.94 43.18 180) (length 2.54)
          (name "GND" (effects (font (size 1.27 1.27))))
          (number "29" (effects (font (size 1.27 1.27))))
        )
        (pin input line (at -20.32 39.37 0) (length 2.54)
          (name "~{RESET}" (effects (font (size 1.27 1.27))))
          (number "3" (effects (font (size 1.27 1.27))))
        )
        (pin input line (at 27.94 45.72 180) (length 2.54)
          (name "AREF" (effects (font (size 1.27 1.27))))
          (number "30" (effects (font (size 1.27 1.27))))
        )
        (pin bidirectional line (at 27.94 50.8 180) (length 2.54)
          (name "SCL" (effects (font (size 1.27 1.27))))
          (number "32" (effects (font (size 1.27 1.27))))
        )
        (pin power_out line (at -20.32 34.29 0) (length 2.54)
          (name "3V3" (effects (font (size 1.27 1.27))))
          (number "4" (effects (font (size 1.27 1.27))))
        )
        (pin power_out line (at -20.32 31.75 0) (length 2.54)
          (name "+5V" (effects (font (size 1.27 1.27))))
          (number "5" (effects (font (size 1.27 1.27))))
        )
        (pin power_in line (at -20.32 24.13 0) (length 2.54)
          (name "VIN" (effects (font (size 1.27 1.27))))
          (number "8" (effects (font (size 1.27 1.27))))
        )
        (pin bidirectional line (at -20.32 17.78 0) (length 2.54)
          (name "A0" (effects (font (size 1.27 1.27))))
          (number "9" (effects (font (size 1.27 1.27))))
        )
      )
    )
  )

  (junction (at 131.445 138.684) (diameter 0) (color 255 0 0 1)
    (uuid 6b46b4bd-3935-439c-9c36-9915e398fc25)
  )
  (junction (at 133.731 135.255) (diameter 0) (color 0 0 0 1)
    (uuid 7b071b2a-a799-4e72-9427-b7d1cd58a27a)
  )
  (junction (at 164.211 138.684) (diameter 0) (color 255 0 0 1)
    (uuid 867a6cee-7262-4957-a1c2-5d5ae05b0ad0)
  )
  (junction (at 171.958 135.255) (diameter 0) (color 0 0 0 1)
    (uuid 9634c608-dd5a-4b52-886e-70dfda597978)
  )
  (junction (at 229.616 80.264) (diameter 0) (color 0 0 0 1)
    (uuid c21eab19-75a8-4cfb-8591-9c4b2b99145a)
  )
  (junction (at 233.045 84.455) (diameter 0) (color 255 0 0 1)
    (uuid f0e4cb38-76b7-46bc-8c89-6a23570f7d17)
  )

  (wire (pts (xy 80.772 128.905) (xy 80.772 124.333))
    (stroke (width 0) (type default) (color 0 0 0 1))
    (uuid 06ef96bb-827f-48a8-acf1-9dac97b3b0b7)
  )
  (wire (pts (xy 167.64 151.003) (xy 164.211 151.003))
    (stroke (width 0) (type default) (color 255 0 0 1))
    (uuid 0787e6a6-8192-4772-ad6a-6b0f52162ad4)
  )
  (wire (pts (xy 229.743 69.0626) (xy 229.616 69.0626))
    (stroke (width 0) (type default) (color 0 0 0 1))
    (uuid 07b4c61f-c545-4b08-bafb-b0fb9b79cf6e)
  )
  (wire (pts (xy 80.772 124.333) (xy 91.821 124.333))
    (stroke (width 0) (type default) (color 0 0 0 1))
    (uuid 0ca221c4-eb52-4c47-8b2c-a3a6dcc6424e)
  )
  (wire (pts (xy 180.213 151.003) (xy 180.213 135.255))
    (stroke (width 0) (type default) (color 0 0 0 1))
    (uuid 0dfa27c5-c606-4857-b53e-eb3389c5a386)
  )
  (wire (pts (xy 233.045 100.076) (xy 233.045 84.455))
    (stroke (width 0) (type default) (color 255 0 0 1))
    (uuid 1076c9cf-4c04-4ab4-bc12-fd4367f70f77)
  )
  (wire (pts (xy 239.522 77.343) (xy 233.045 77.343))
    (stroke (width 0) (type default) (color 255 0 0 1))
    (uuid 11f31c01-f76d-4980-9334-e77654a55b24)
  )
  (wire (pts (xy 155.321 141.605) (xy 155.321 128.397))
    (stroke (width 0) (type default) (color 255 153 0 1))
    (uuid 168e7eb9-a7c3-428e-b4b5-d0454f294370)
  )
  (wire (pts (xy 229.616 80.264) (xy 229.616 102.997))
    (stroke (width 0) (type default) (color 0 0 0 1))
    (uuid 179a2651-25fd-4a39-bf1b-3f8e5078b17e)
  )
  (wire (pts (xy 183.388 103.632) (xy 176.276 103.632))
    (stroke (width 0) (type default) (color 255 0 0 1))
    (uuid 19c0e85e-13fa-4332-adef-0c41e327234a)
  )
  (wire (pts (xy 183.388 108.712) (xy 167.132 108.712))
    (stroke (width 0) (type default) (color 255 153 0 1))
    (uuid 231ab187-dc55-4197-8a3c-6aa11fec1124)
  )
  (wire (pts (xy 183.388 101.092) (xy 171.958 101.092))
    (stroke (width 0) (type default) (color 0 0 0 1))
    (uuid 231e8090-a5a8-4b7b-b0d9-419261ac0b22)
  )
  (wire (pts (xy 175.26 151.003) (xy 180.213 151.003))
    (stroke (width 0) (type default) (color 0 0 0 1))
    (uuid 330c0c99-38d5-45ef-9907-21e5a0cc5591)
  )
  (wire (pts (xy 229.616 69.0626) (xy 229.616 80.264))
    (stroke (width 0) (type default) (color 0 0 0 1))
    (uuid 3544a9e2-9197-4cab-a5f8-4a12f7324f98)
  )
  (wire (pts (xy 133.731 135.255) (xy 171.958 135.255))
    (stroke (width 0) (type default) (color 0 0 0 1))
    (uuid 37128be9-d000-4236-8849-90f8662eea68)
  )
  (wire (pts (xy 71.882 128.905) (xy 80.772 128.905))
    (stroke (width 0) (type default) (color 0 0 0 1))
    (uuid 379c5f96-dc3e-485a-8d85-ab869b9647e7)
  )
  (wire (pts (xy 164.211 151.003) (xy 164.211 138.684))
    (stroke (width 0) (type default) (color 255 0 0 1))
    (uuid 411a9e6c-e396-4e81-b1bb-0506985215f6)
  )
  (wire (pts (xy 220.3704 84.455) (xy 220.3704 92.6592))
    (stroke (width 0) (type default) (color 255 0 0 1))
    (uuid 44c3d1a8-1252-44e1-9b6d-e8da6e415d0c)
  )
  (wire (pts (xy 131.191 128.397) (xy 131.191 138.684))
    (stroke (width 0) (type default) (color 255 0 0 1))
    (uuid 4bcce1c4-b247-49cd-8da6-9121cdd45ec7)
  )
  (wire (pts (xy 129.286 141.605) (xy 155.321 141.605))
    (stroke (width 0) (type default) (color 255 153 0 1))
    (uuid 563ddf2d-88b9-4316-9159-701ade8a9505)
  )
  (wire (pts (xy 127.254 144.272) (xy 157.861 144.272))
    (stroke (width 0) (type default) (color 0 194 194 1))
    (uuid 611a2503-72b0-4094-b969-0145f4d675d9)
  )
  (wire (pts (xy 133.731 135.255) (xy 133.731 147.574))
    (stroke (width 0) (type default) (color 0 0 0 1))
    (uuid 6f2ff61a-4939-445c-a1dc-8332459e3e70)
  )
  (wire (pts (xy 233.045 84.455) (xy 220.3704 84.455))
    (stroke (width 0) (type default) (color 255 0 0 1))
    (uuid 77bf6a5d-b240-4e2e-9675-624ba7abd2d5)
  )
  (wire (pts (xy 131.445 138.684) (xy 131.445 147.574))
    (stroke (width 0) (type default) (color 255 0 0 1))
    (uuid 79aa0259-b53d-4d58-bc76-80d69b369161)
  )
  (wire (pts (xy 229.616 80.264) (xy 239.522 80.264))
    (stroke (width 0) (type default) (color 0 0 0 1))
    (uuid 7a254422-b432-4604-be44-08f783b443a8)
  )
  (wire (pts (xy 127.254 147.574) (xy 127.254 144.272))
    (stroke (width 0) (type default) (color 0 194 194 1))
    (uuid 80fec828-398e-4589-8dee-04de674258bb)
  )
  (wire (pts (xy 131.191 138.684) (xy 131.445 138.684))
    (stroke (width 0) (type default) (color 255 0 0 1))
    (uuid 8aeceb5b-362c-4b83-914a-4cb32eea14e9)
  )
  (wire (pts (xy 217.8304 57.277) (xy 73.025 57.277))
    (stroke (width 0) (type default) (color 255 0 0 1))
    (uuid 8ecd1d69-ec50-4c48-b7c9-e23c49e3591b)
  )
  (wire (pts (xy 171.958 101.092) (xy 171.958 135.255))
    (stroke (width 0) (type default) (color 0 0 0 1))
    (uuid 908c5465-6bfb-4192-961d-91ff05b405a0)
  )
  (wire (pts (xy 176.276 103.632) (xy 176.276 138.684))
    (stroke (width 0) (type default) (color 255 0 0 1))
    (uuid 972d6a7e-0938-4efe-9b5d-9cb7f712ec73)
  )
  (wire (pts (xy 239.268 102.997) (xy 229.616 102.997))
    (stroke (width 0) (type default))
    (uuid 982fbe16-49dc-4853-b02f-6fea92c51aac)
  )
  (wire (pts (xy 167.132 108.712) (xy 167.132 133.604))
    (stroke (width 0) (type default) (color 255 153 0 1))
    (uuid 9d666b61-2140-4b9d-aa18-f8790f7ae979)
  )
  (wire (pts (xy 239.268 100.076) (xy 233.045 100.076))
    (stroke (width 0) (type default) (color 255 0 0 1))
    (uuid 9e53168e-7e42-4d2a-9bad-d4db68c310c1)
  )
  (wire (pts (xy 229.743 69.0626) (xy 229.743 69.088))
    (stroke (width 0) (type default) (color 0 0 0 1))
    (uuid a17e25bf-768e-4d19-9bc0-5054a3596b7d)
  )
  (wire (pts (xy 167.132 133.604) (xy 145.161 133.604))
    (stroke (width 0) (type default) (color 255 153 0 1))
    (uuid a8c99b38-715a-4420-a95f-a1ae044c7c8d)
  )
  (wire (pts (xy 80.645 117.094) (xy 80.645 119.888))
    (stroke (width 0) (type default) (color 255 0 0 1))
    (uuid a9b8b4a1-0221-4aed-ad99-ceca5b31e49f)
  )
  (wire (pts (xy 229.743 69.088) (xy 72.898 69.088))
    (stroke (width 0) (type default) (color 0 0 0 1))
    (uuid af69fc0d-99a9-42a8-bbdd-71934927ecc3)
  )
  (wire (pts (xy 147.701 136.652) (xy 147.701 128.397))
    (stroke (width 0) (type default) (color 255 153 0 1))
    (uuid b1b19078-807f-4906-969f-79f12bcc59f9)
  )
  (wire (pts (xy 171.45 147.193) (xy 171.45 136.652))
    (stroke (width 0) (type default) (color 255 153 0 1))
    (uuid b756ff50-12b0-45ab-9434-fdaabe12e136)
  )
  (wire (pts (xy 129.286 147.574) (xy 129.286 141.605))
    (stroke (width 0) (type default) (color 255 153 0 1))
    (uuid c2068163-2d38-41c1-8ae9-06140657467f)
  )
  (wire (pts (xy 217.8304 57.277) (xy 217.8304 92.6592))
    (stroke (width 0) (type default) (color 255 0 0 1))
    (uuid cb5bccf2-7fa8-4243-aa52-448f70072cc6)
  )
  (wire (pts (xy 157.861 144.272) (xy 157.861 128.397))
    (stroke (width 0) (type default) (color 0 194 194 1))
    (uuid d17d2c65-0ccc-4adc-91b1-d946698cad33)
  )
  (wire (pts (xy 133.731 128.397) (xy 133.731 135.255))
    (stroke (width 0) (type default) (color 0 0 0 1))
    (uuid d370d0ce-7b49-4a46-b6e8-4caba71f2361)
  )
  (wire (pts (xy 164.211 138.684) (xy 176.276 138.684))
    (stroke (width 0) (type default) (color 255 0 0 1))
    (uuid d3f33e18-8a44-47a0-acf4-8ecb303dbc7f)
  )
  (wire (pts (xy 145.161 133.604) (xy 145.161 128.397))
    (stroke (width 0) (type default) (color 255 153 0 1))
    (uuid d42d5dae-b037-4fb2-93ec-e6487611412c)
  )
  (wire (pts (xy 171.45 136.652) (xy 147.701 136.652))
    (stroke (width 0) (type default) (color 255 153 0 1))
    (uuid dd96c390-410b-4a83-bc45-84745261cbb6)
  )
  (wire (pts (xy 131.445 138.684) (xy 164.211 138.684))
    (stroke (width 0) (type default) (color 255 0 0 1))
    (uuid e0c38039-fa2b-47ef-8dfb-955860920cf5)
  )
  (wire (pts (xy 80.645 119.888) (xy 91.821 119.888))
    (stroke (width 0) (type default) (color 255 0 0 1))
    (uuid e215b909-985f-4be4-8589-a3c8f9852266)
  )
  (wire (pts (xy 233.045 77.343) (xy 233.045 84.455))
    (stroke (width 0) (type default) (color 255 0 0 1))
    (uuid f1a2203a-7074-46ea-94df-b16ca2a2f2c0)
  )
  (wire (pts (xy 72.009 117.094) (xy 80.645 117.094))
    (stroke (width 0) (type default) (color 255 0 0 1))
    (uuid f24173db-7bf0-4589-982a-a205d514a8a0)
  )
  (wire (pts (xy 171.958 135.255) (xy 180.213 135.255))
    (stroke (width 0) (type default) (color 0 0 0 1))
    (uuid fe8b4ecf-bd24-4a9b-8047-ec7f799ba2c0)
  )

  (symbol (lib_id "Adafruit_Motor_Shield_V2:Résistance_Chauffante") (at 261.747 79.756 0) (unit 1)
    (in_bom yes) (on_board yes) (dnp no)
    (uuid 31076933-01eb-452e-8e15-f4fd81b7838e)
    (property "Reference" "RP06-2/10-1" (at 254.889 71.247 0)
      (effects (font (size 1.27 1.27)) (justify left))
    )
    (property "Value" "Résistance_Chauffante" (at 250.571 90.424 0)
      (effects (font (size 1.27 1.27)) (justify left))
    )
    (property "Footprint" "" (at 254.635 77.343 0)
      (effects (font (size 1.27 1.27)) hide)
    )
    (property "Datasheet" "" (at 254.635 77.343 0)
      (effects (font (size 1.27 1.27)) hide)
    )
    (pin "1" (uuid 57eefb90-d44d-4b1c-be51-dbbbf7b40bb0))
    (pin "2" (uuid f9919ed6-92b7-4296-ae0b-97afb2fc6550))
    (instances
      (project "WP_6000"
        (path "/2e1fb9e2-fd1c-4f54-8c06-d1db76f7b831"
          (reference "RP06-2/10-1") (unit 1)
        )
      )
    )
  )

  (symbol (lib_id "Adafruit_Motor_Shield_V2:_AC{slash}DC_Power_Supply_40W_7.5_VDC_5.34A") (at 45.085 54.229 0) (unit 1)
    (in_bom yes) (on_board yes) (dnp no)
    (uuid 3b4c6953-4c8e-4f79-8557-f1e5c3735ce1)
    (property "Reference" "U?" (at 45.085 41.529 0)
      (effects (font (size 1.27 1.27)))
    )
    (property "Value" "_AC/DC_Power_Supply_60W_12_VDC_4.5A" (at 45.085 39.243 0)
      (effects (font (size 1.27 1.27)))
    )
    (property "Footprint" "" (at 27.051 57.912 0)
      (effects (font (size 1.27 1.27)) hide)
    )
    (property "Datasheet" "" (at 27.051 57.912 0)
      (effects (font (size 1.27 1.27)) hide)
    )
    (pin "" (uuid dbce4ea5-d691-4cfd-968a-27b34635e4ed))
    (pin "" (uuid dbce4ea5-d691-4cfd-968a-27b34635e4ed))
    (pin "" (uuid dbce4ea5-d691-4cfd-968a-27b34635e4ed))
    (pin "" (uuid dbce4ea5-d691-4cfd-968a-27b34635e4ed))
    (pin "" (uuid dbce4ea5-d691-4cfd-968a-27b34635e4ed))
    (pin "" (uuid dbce4ea5-d691-4cfd-968a-27b34635e4ed))
    (pin "" (uuid dbce4ea5-d691-4cfd-968a-27b34635e4ed))
    (pin "" (uuid dbce4ea5-d691-4cfd-968a-27b34635e4ed))
    (pin "" (uuid dbce4ea5-d691-4cfd-968a-27b34635e4ed))
    (pin "" (uuid dbce4ea5-d691-4cfd-968a-27b34635e4ed))
    (pin "" (uuid dbce4ea5-d691-4cfd-968a-27b34635e4ed))
    (pin "" (uuid dbce4ea5-d691-4cfd-968a-27b34635e4ed))
    (pin "" (uuid dbce4ea5-d691-4cfd-968a-27b34635e4ed))
    (pin "+" (uuid 782d49ca-efbe-4182-b135-496c79bd595a))
    (pin "-" (uuid 67da30ad-ec37-4c31-b811-e379c0520e48))
    (pin "1" (uuid 2fa617b1-018f-4bed-8860-4ac7bcdfa02e))
    (pin "2" (uuid d0b8ad19-a5e4-469e-9642-06ba4ad0e705))
    (pin "3" (uuid 7669de83-1429-4a68-9afe-d32f854f2faf))
    (pin "4" (uuid 433113c0-dfbc-4ae9-8859-787a77f4dcd8))
    (instances
      (project "WP_6000"
        (path "/2e1fb9e2-fd1c-4f54-8c06-d1db76f7b831"
          (reference "U?") (unit 1)
        )
      )
    )
  )

  (symbol (lib_id "Adafruit_Motor_Shield_V2:Résistance_Chauffante") (at 261.493 102.489 0) (unit 1)
    (in_bom yes) (on_board yes) (dnp no)
    (uuid 3d9350c0-dcea-4dc1-89bf-10c05708889a)
    (property "Reference" "RP06-2/10-2" (at 254.889 109.474 0)
      (effects (font (size 1.27 1.27)) (justify left))
    )
    (property "Value" "Résistance_Chauffante" (at 251.714 113.157 0)
      (effects (font (size 1.27 1.27)) (justify left))
    )
    (property "Footprint" "" (at 254.381 100.076 0)
      (effects (font (size 1.27 1.27)) hide)
    )
    (property "Datasheet" "" (at 254.381 100.076 0)
      (effects (font (size 1.27 1.27)) hide)
    )
    (pin "1" (uuid f9c99639-123a-457b-88a0-1ca360971bfb))
    (pin "2" (uuid 86ab5a74-1508-4384-b2c7-02ee06cc4075))
    (instances
      (project "WP_6000"
        (path "/2e1fb9e2-fd1c-4f54-8c06-d1db76f7b831"
          (reference "RP06-2/10-2") (unit 1)
        )
      )
    )
  )

  (symbol (lib_id "MCU_Module_arduino_R3_P1:Arduino_Uno_R3") (at 162.941 108.077 90) (unit 1)
    (in_bom yes) (on_board yes) (dnp no) (fields_autoplaced)
    (uuid 4ecd07b5-633c-4ee4-8407-8898f83e1fbd)
    (property "Reference" "A?" (at 202.311 111.887 0)
      (effects (font (size 1.27 1.27)) (justify left) hide)
    )
    (property "Value" "Arduino_Uno_R3" (at 199.771 105.537 0)
      (effects (font (size 1.27 1.27)) (justify left) hide)
    )
    (property "Footprint" "Module:Arduino_Uno_R3" (at 206.121 113.157 0)
      (effects (font (size 1.27 1.27) italic) hide)
    )
    (property "Datasheet" "https://www.arduino.cc/" (at 218.821 111.887 0)
      (effects (font (size 1.016 1.016)) hide)
    )
    (pin "" (uuid 92a29501-2536-4899-a559-c3c7b5d02401))
    (pin "" (uuid 92a29501-2536-4899-a559-c3c7b5d02401))
    (pin "" (uuid 92a29501-2536-4899-a559-c3c7b5d02401))
    (pin "1" (uuid a87ab423-6631-4d53-9146-decdd6afe270))
    (pin "10" (uuid f5ff0466-19c3-496c-8cd7-75c76cc4f7c4))
    (pin "11" (uuid 2eb117b3-6035-436a-a88a-c29cdf4430f0))
    (pin "12" (uuid db6a2368-c1c4-48e4-ab58-5148a35add5e))
    (pin "13" (uuid 26e9ba0a-6d41-44bf-a510-15cb097f90f0))
    (pin "14" (uuid 3cc79a2d-0457-413c-adae-16bfb09ee07e))
    (pin "15" (uuid cc8b3185-53fd-4e8e-9181-e43587bf2987))
    (pin "16" (uuid 69ed6ba1-a521-4bf5-a06c-1a752014333b))
    (pin "17" (uuid 52a93cc6-4814-47a4-b95d-f3df61395247))
    (pin "18" (uuid 871ac67c-e009-4f3d-b93a-a931b27cb2f0))
    (pin "19" (uuid b5d87e0b-4880-4911-9198-71ba240f04c5))
    (pin "2" (uuid 72ce589a-2705-4984-9458-e853093af489))
    (pin "20" (uuid 3e3d1bad-5a10-4572-9330-3a7305cb33c7))
    (pin "21" (uuid c01cb849-d256-4510-b5bc-3c02dfd1d5cc))
    (pin "22" (uuid 19094709-d7b3-4962-8779-5a0d08c9bd2c))
    (pin "23" (uuid e15a5404-9e97-477c-bebc-073b67f6d655))
    (pin "24" (uuid 54be2319-2fe1-447b-b6d3-0244dacacd22))
    (pin "25" (uuid 60e17ff9-e542-4648-938c-1c12794cfa60))
    (pin "26" (uuid 9fee015a-d30e-43b2-bc75-3cb0f4e762ee))
    (pin "27" (uuid 75159abd-d7f5-4671-b837-9191366b704d))
    (pin "28" (uuid 51d8739e-3d44-49bf-94b3-4c749200b2ca))
    (pin "29" (uuid de1bfc8b-e2a8-49f9-b574-a6f46a64a872))
    (pin "29" (uuid de1bfc8b-e2a8-49f9-b574-a6f46a64a872))
    (pin "29" (uuid de1bfc8b-e2a8-49f9-b574-a6f46a64a872))
    (pin "3" (uuid 563ac928-c9c4-45e7-b894-d257f48f5675))
    (pin "30" (uuid 0a434a1e-7caf-4ff7-af52-968968ae620f))
    (pin "32" (uuid 2fde5299-2eef-44c1-ae53-531b2f7b10fd))
    (pin "4" (uuid a1586496-4628-42ca-bbda-7c9fbc62c81a))
    (pin "5" (uuid ff35b971-bdd6-47e6-852d-f4fa4e8c3a64))
    (pin "8" (uuid 4906fc2f-ddbd-4e2f-a2bf-e3b18061b03a))
    (pin "9" (uuid 349bda2a-f1a3-4f15-b9a3-a07055edde04))
    (instances
      (project "WP_6000"
        (path "/2e1fb9e2-fd1c-4f54-8c06-d1db76f7b831"
          (reference "A?") (unit 1)
        )
      )
    )
  )

  (symbol (lib_id "Device:R_Potentiometer") (at 171.45 151.003 90) (unit 1)
    (in_bom yes) (on_board yes) (dnp no) (fields_autoplaced)
    (uuid 5bbde23f-8966-4079-96fb-e7fc440ba818)
    (property "Reference" "RV?" (at 171.45 154.813 90)
      (effects (font (size 1.27 1.27)) hide)
    )
    (property "Value" "R_Potentiometer" (at 171.45 154.813 90)
      (effects (font (size 1.27 1.27)))
    )
    (property "Footprint" "" (at 171.45 151.003 0)
      (effects (font (size 1.27 1.27)) hide)
    )
    (property "Datasheet" "~" (at 171.45 151.003 0)
      (effects (font (size 1.27 1.27)) hide)
    )
    (pin "1" (uuid 4be144bb-530f-46ff-9619-2ddd3eacac25))
    (pin "2" (uuid fcaf2260-c426-46b5-8599-78e6b9a4e29b))
    (pin "3" (uuid 90894851-06f0-4b3b-bf2a-2ed656a56b37))
    (instances
      (project "WP_6000"
        (path "/2e1fb9e2-fd1c-4f54-8c06-d1db76f7b831"
          (reference "RV?") (unit 1)
        )
      )
    )
  )

  (symbol (lib_id "Adafruit_Motor_Shield_V2:_AC{slash}DC_Power_Supply_40W_7.5_VDC_5.34A") (at 44.069 114.046 0) (unit 1)
    (in_bom yes) (on_board yes) (dnp no)
    (uuid 75ecb994-e13f-49d5-ba4e-55ddedc2b062)
    (property "Reference" "U?" (at 44.069 101.346 0)
      (effects (font (size 1.27 1.27)))
    )
    (property "Value" "_AC/DC_Power_Supply_40W_7.5_VDC_5.34A" (at 44.069 99.06 0)
      (effects (font (size 1.27 1.27)))
    )
    (property "Footprint" "" (at 26.035 117.729 0)
      (effects (font (size 1.27 1.27)) hide)
    )
    (property "Datasheet" "" (at 26.035 117.729 0)
      (effects (font (size 1.27 1.27)) hide)
    )
    (pin "" (uuid 3ed348f0-52ff-4d05-8769-20512d64b76e))
    (pin "" (uuid 3ed348f0-52ff-4d05-8769-20512d64b76e))
    (pin "" (uuid 3ed348f0-52ff-4d05-8769-20512d64b76e))
    (pin "" (uuid 3ed348f0-52ff-4d05-8769-20512d64b76e))
    (pin "" (uuid 3ed348f0-52ff-4d05-8769-20512d64b76e))
    (pin "" (uuid 3ed348f0-52ff-4d05-8769-20512d64b76e))
    (pin "" (uuid 3ed348f0-52ff-4d05-8769-20512d64b76e))
    (pin "" (uuid 3ed348f0-52ff-4d05-8769-20512d64b76e))
    (pin "" (uuid 3ed348f0-52ff-4d05-8769-20512d64b76e))
    (pin "" (uuid 3ed348f0-52ff-4d05-8769-20512d64b76e))
    (pin "" (uuid 3ed348f0-52ff-4d05-8769-20512d64b76e))
    (pin "" (uuid 3ed348f0-52ff-4d05-8769-20512d64b76e))
    (pin "" (uuid 3ed348f0-52ff-4d05-8769-20512d64b76e))
    (pin "+" (uuid 45167a15-7226-4bab-b206-4261d2a8a8e8))
    (pin "-" (uuid 1315fc52-ce26-4b43-92f2-30bf2bed8ee5))
    (pin "1" (uuid 5c60ff26-fa7c-4739-b6dd-3c05b66f082e))
    (pin "2" (uuid e0e6dafb-b373-4ecf-b8e0-f75b2f673f6d))
    (pin "3" (uuid 642fd2da-9e9e-4712-9c90-037d72d8557f))
    (pin "4" (uuid 2068b3cf-0d77-4d5c-8087-26490fccd382))
    (instances
      (project "WP_6000"
        (path "/2e1fb9e2-fd1c-4f54-8c06-d1db76f7b831"
          (reference "U?") (unit 1)
        )
      )
    )
  )

  (symbol (lib_id "Adafruit_Motor_Shield_V2:Grove_-_Solid_State_Relay_V2") (at 205.232 107.6452 0) (unit 1)
    (in_bom yes) (on_board yes) (dnp no)
    (uuid 7930fdc0-df55-44ee-b9c8-a31d6244df47)
    (property "Reference" "K1" (at 204.6224 99.6188 0)
      (effects (font (size 1.27 1.27)) (justify left))
    )
    (property "Value" "Grove_-_Solid_State_Relay_V2" (at 195.0466 105.8418 0)
      (effects (font (size 1.27 1.27)) (justify left))
    )
    (property "Footprint" "" (at 202.819 94.8182 90)
      (effects (font (size 1.27 1.27)) hide)
    )
    (property "Datasheet" "" (at 202.819 94.8182 90)
      (effects (font (size 1.27 1.27)) hide)
    )
    (pin "" (uuid dacf203a-a44a-4901-85a6-6cae39217e1b))
    (pin "" (uuid dacf203a-a44a-4901-85a6-6cae39217e1b))
    (pin "1" (uuid 15a4c614-f48b-45f7-a4f7-3d1896b07c77))
    (pin "2" (uuid 04b528b0-e922-4f54-9ec9-40f315661e1f))
    (pin "3" (uuid 251b0768-c6f2-4d52-b42a-b60159553bb2))
    (pin "4" (uuid 2d79177a-0b03-4654-9292-215fd0ba5bc9))
    (instances
      (project "WP_6000"
        (path "/2e1fb9e2-fd1c-4f54-8c06-d1db76f7b831"
          (reference "K1") (unit 1)
        )
      )
      (project "WP_1000"
        (path "/3a177018-01e1-40cb-a9cd-7a7cf4ea0c74"
          (reference "K1") (unit 1)
        )
      )
      (project "WP2200"
        (path "/8c2d7e6e-7b53-4fbf-a034-f96c444fcc41"
          (reference "K?") (unit 1)
        )
      )
      (project "WP_2200"
        (path "/98581954-d561-4374-a00a-55b82ac26eba"
          (reference "K1") (unit 1)
        )
      )
    )
  )

  (symbol (lib_id "Adafruit_Motor_Shield_V2:i2c_2x16") (at 119.38 155.194 180) (unit 1)
    (in_bom yes) (on_board yes) (dnp no) (fields_autoplaced)
    (uuid e3751959-377b-4dba-aab1-b4a4fc807fd3)
    (property "Reference" "LCD?" (at 138.557 154.8998 0)
      (effects (font (size 1.27 1.27)) (justify right))
    )
    (property "Value" "i2c_2x16" (at 138.557 157.4398 0)
      (effects (font (size 1.27 1.27)) (justify right))
    )
    (property "Footprint" "" (at 119.38 155.194 0)
      (effects (font (size 1.27 1.27)) hide)
    )
    (property "Datasheet" "" (at 119.38 155.194 0)
      (effects (font (size 1.27 1.27)) hide)
    )
    (pin "" (uuid e7b79e9c-8431-467c-8900-bc94908972be))
    (pin "" (uuid e7b79e9c-8431-467c-8900-bc94908972be))
    (pin "" (uuid e7b79e9c-8431-467c-8900-bc94908972be))
    (pin "" (uuid e7b79e9c-8431-467c-8900-bc94908972be))
    (instances
      (project "WP_6000"
        (path "/2e1fb9e2-fd1c-4f54-8c06-d1db76f7b831"
          (reference "LCD?") (unit 1)
        )
      )
    )
  )

  (sheet_instances
    (path "/" (page "1"))
  )
)
